Log Time,battery_voltage,load_current,gen_current,gen_voltage
2013-12-15 12:20:49,11.75,0,0,0.05
2013-12-15 12:51:21,11.77,0,0,0.05
2013-12-15 1:21:50,11.77,0,0,0.04
2013-12-15 1:52:55,11.77,0,0,0.04
2013-12-15 2:23:39,11.77,0,0,0.04
2013-12-15 2:54:33,11.77,0,0,0.04
2013-12-15 3:25:15,11.76,0.01,0,0.04
2013-12-15 3:56:14,11.76,0.01,0,0.04
2013-12-15 4:26:53,11.76,0.02,0,0.04
2013-12-15 4:57:41,11.76,0.01,0,0.04
2013-12-15 5:28:15,11.75,0.01,0,0.04
2013-12-15 5:58:50,11.74,0.01,0,0.04
2013-12-15 6:30:31,11.75,0.01,0,0.04
2013-12-15 7:23:56,11.74,0.01,0,4.33
2013-12-15 10:18:32,11.97,2,3,12.14
2013-12-15 10:49:21,12.1,3.17,4.26,12.15
2013-12-15 11:20:21,12.23,3.25,5.11,12.33
2013-12-15 11:51:03,12.48,2.92,6.83,12.58
2013-12-15 12:21:54,12.69,2.83,8.66,12.8
2013-12-15 12:52:33,12.83,2.52,9.72,13.03
2013-12-15 1:23:40,12.8,2.95,9.96,13.03
2013-12-15 1:54:38,12.83,2.91,10.14,12.95
2013-12-15 2:25:15,12.83,3.08,9.68,12.97
2013-12-15 2:56:25,12.74,2.98,8.13,12.88
2013-12-15 3:27:11,12.74,2.89,7.24,12.83
2013-12-15 3:58:32,12.72,2.69,6.03,12.81
2013-12-15 4:29:32,12.66,2.97,4.7,12.68
2013-12-15 5:00:26,12.54,2.8,2.94,12.55
2013-12-15 5:31:11,12.42,2.77,1.7,12.41
2013-12-15 6:01:57,12.29,2.83,0.52,12.3
2013-12-15 6:32:52,12.17,2.84,0.04,12.19
2013-12-15 7:03:26,12.02,5.08,0,7.07
2013-12-15 7:34:11,11.85,5.41,0,0.07
2013-12-15 8:04:50,11.68,6.27,0,0.04
2013-12-15 8:35:52,11.59,5.07,0.01,0.04
2013-12-15 9:06:58,11.51,4.5,0,0.04
2013-12-15 9:38:05,11.46,4.32,0,0.05
2013-12-15 10:08:39,11.36,4.4,0,0.05
2013-12-15 10:39:38,11.53,1.28,0,0.06
2013-12-15 11:10:32,11.72,0,0,0.06
2013-12-15 11:41:30,11.73,0,0,0.06
2013-12-16 12:12:21,11.75,0,0,0.06
2013-12-16 12:42:52,11.75,0,0,0.06
2013-12-16 1:13:34,11.76,0,0,0.06
2013-12-16 1:44:07,11.75,0,0,0.05
2013-12-16 2:14:55,11.74,0,0,0.04
2013-12-16 2:45:50,11.74,0,0,0.04
2013-12-16 3:16:51,11.74,0,0,0.04
2013-12-16 3:47:34,11.74,0,0,0.04
2013-12-16 4:18:19,11.73,0,0,0.04
2013-12-16 4:48:38,11.72,0,0,0.04
2013-12-16 5:19:23,11.72,0,0,0.04
2013-12-16 5:50:07,11.72,0,0,0.04
2013-12-16 6:20:41,11.72,0,0,0.04
2013-12-16 6:51:10,11.71,0,0,0.05
2013-12-16 7:21:43,11.71,0,0,5.77
2013-12-16 7:52:33,11.72,0,0.02,11.71
2013-12-16 8:23:10,11.93,0,0.62,11.92
2013-12-16 8:54:01,12.12,0.99,1.56,12.13
2013-12-16 9:24:35,11.74,3.21,1.93,11.74
2013-12-16 9:55:04,11.48,3.89,2.38,11.53
2013-12-16 10:25:37,11.5,3.74,2.96,11.51
2013-12-16 10:56:18,11.51,4.6,3.88,11.56
2013-12-16 11:26:53,11.54,4.65,5.04,11.58
2013-12-16 11:57:35,11.82,4.45,5.84,11.88
2013-12-16 12:28:25,12.33,3.88,8.35,12.46
2013-12-16 12:59:00,12.76,2.72,9.99,12.92
2013-12-16 1:29:48,12.83,2.47,8.73,12.93
2013-12-16 2:00:23,12.75,2.39,8.7,12.86
2013-12-16 2:31:02,12.82,2.69,9.87,12.96
2013-12-16 3:01:36,12.8,2.46,8.63,12.91
2013-12-16 3:32:05,12.72,2.44,6.3,12.77
2013-12-16 4:02:38,12.49,2.77,3.01,12.51
2013-12-16 4:33:11,12.4,2.91,2.6,12.41
2013-12-16 5:03:49,12.28,3,1.58,12.28
2013-12-16 5:34:26,12.21,3.1,1.5,12.25
2013-12-16 6:05:01,12.09,3.39,0.31,12.06
2013-12-16 6:35:29,11.85,4.29,0,11.85
2013-12-16 7:06:12,11.74,4.61,0,5.91
2013-12-16 7:37:34,11.58,5.19,0,0.05
2013-12-16 8:32:25,11.46,3.87,0,0.04
2013-12-16 9:43:18,11.59,1.2,0,0.05
2013-12-16 10:30:43,11.74,0,0,0.05
2013-12-16 11:18:09,11.74,0,0,0.05
2013-12-17 12:05:35,11.74,0,0,0.05
2013-12-17 12:53:01,11.74,0,0,0.05
2013-12-17 1:40:28,11.74,0,0,0.05
2013-12-17 2:27:55,11.73,0,0,0.06
2013-12-17 3:15:22,11.73,0,0,0.06
2013-12-17 4:02:49,11.72,0,0,0.05
2013-12-17 4:50:16,11.72,0,0,0.04
2013-12-17 5:37:44,11.71,0,0,0.04
2013-12-17 6:25:12,11.69,0,0,0.04
2013-12-17 7:12:40,11.69,0,0,1.69
2013-12-17 8:00:09,11.71,0,0.01,11.51
2013-12-17 8:47:37,11.9,0,0.4,11.9
2013-12-17 9:35:06,11.71,3.15,1.49,11.71
2013-12-17 10:22:37,11.39,4.3,2.67,11.39
2013-12-17 11:10:12,11.71,3.25,4.12,11.75
2013-12-17 11:57:47,12.17,2.43,3.65,12.23
2013-12-17 12:45:23,12.23,2.63,4.1,12.3
2013-12-17 1:32:58,12.5,2.5,5.55,12.61
2013-12-17 2:20:34,12.61,2.08,5.31,12.68
2013-12-17 3:08:11,12.63,1.97,4.81,12.7
2013-12-17 3:55:47,12.58,2.1,4.42,12.65
2013-12-17 4:43:23,12.47,1.85,2.64,12.49
2013-12-17 5:32:39,12.3,2.02,0.82,12.3
2013-12-17 6:20:16,12.13,1.84,0.06,12.12
2013-12-17 7:08:29,11.83,4.07,0,5.97
2013-12-17 7:56:33,11.49,4.55,0,0.04
2013-12-17 8:42:46,11.68,0,0,0.04
2013-12-17 9:29:57,11.74,0,0,0.04
2013-12-17 10:16:16,11.73,0,0,0.04
2013-12-17 11:03:54,11.72,0,0,0.04
2013-12-17 11:51:33,11.71,0,0,0.04
2013-12-18 12:39:12,11.69,0,0,0.04
2013-12-18 1:26:52,11.68,0,0,0.04
2013-12-18 2:14:32,11.66,0,0,0.04
2013-12-18 3:02:12,11.65,0,0,0.04
2013-12-18 3:49:53,11.64,0,0,0.04
2013-12-18 4:37:34,11.63,0,0,0.04
2013-12-18 5:25:15,11.62,0.01,0,0.04
2013-12-18 6:12:56,11.61,0.01,0,0.04
2013-12-18 7:00:39,11.61,0.01,0,0.11
2013-12-18 7:48:27,11.63,0.01,0.01,9.44
2013-12-18 8:36:15,11.78,0.01,0.21,11.79
2013-12-18 9:24:04,11.5,2.79,1.36,11.53
2013-12-18 10:11:52,12.2,1.96,3.31,12.24
2013-12-18 10:59:40,12.36,2.66,4.8,12.44
2013-12-18 11:47:28,12.49,2.14,4.67,12.56
2013-12-18 12:35:17,12.77,1.59,7.88,12.9
2013-12-18 1:23:05,12.85,1.18,8.56,12.97
2013-12-18 2:10:54,12.81,1.3,8.09,12.96
2013-12-18 2:58:43,12.67,1.78,5.63,12.74
2013-12-18 3:46:33,12.62,2.08,5.33,12.72
2013-12-18 4:34:23,12.63,1.97,4.54,12.68
2013-12-18 5:22:12,12.54,1.89,2.25,12.54
2013-12-18 6:10:03,12.35,2.34,0.61,12.3
2013-12-18 6:57:52,12.11,3.37,0.01,9.62
2013-12-18 7:45:43,12,3.33,0,0.08
2013-12-18 8:33:33,11.86,3.39,0,0.04
2013-12-18 9:21:24,11.73,3.61,0,0.04
2013-12-18 10:09:16,11.53,3.95,0,0.05
2013-12-18 10:57:07,11.39,3.72,0,0.05
2013-12-18 11:44:59,11.61,0.48,0,0.04
2013-12-19 12:32:51,11.73,0,0,0.05
2013-12-19 1:20:43,11.74,0,0,0.05
2013-12-19 2:08:36,11.74,0.01,0,0.05
2013-12-19 2:56:31,11.73,0.01,0,0.06
2013-12-19 3:44:30,11.73,0.01,0,0.05
2013-12-19 4:32:30,11.72,0.01,0,0.05
2013-12-19 5:20:30,11.71,0.02,0,0.04
2013-12-19 6:08:30,11.71,0.02,0,0.04
2013-12-19 6:56:31,11.7,0.02,0,0.08
2013-12-19 7:44:31,11.71,0.02,0.02,9.11
2013-12-19 8:32:32,11.89,0.39,0.54,11.89
2013-12-19 9:20:33,11.46,3.07,1.5,11.48
2013-12-19 10:08:35,11.53,3.2,2.74,11.57
2013-12-19 10:56:36,11.96,2.57,4.07,12.04
2013-12-19 11:45:41,12.45,2.84,5.79,12.54
2013-12-19 12:33:43,12.77,2.56,9.51,12.92
2013-12-19 1:22:35,12.77,2.79,8.53,12.86
2013-12-19 2:09:59,12.87,2.87,10.82,13.08
2013-12-19 2:58:01,12.86,3.19,10.81,13.01
2013-12-19 3:46:03,12.78,3.11,8.52,12.91
2013-12-19 4:34:06,12.64,2.47,4.46,12.7
2013-12-19 5:22:09,12.49,2.07,2.03,12.53
2013-12-19 6:10:12,12.31,2.48,0.71,12.3
2013-12-19 6:58:16,12.12,4.42,0.02,9.59
2013-12-19 7:46:19,11.87,4.67,0,0.08
2013-12-19 8:34:23,11.69,4.73,0,0.04
2013-12-19 9:22:27,11.48,5.74,0,0.04
2013-12-19 10:10:31,11.61,1.76,0,0.04
2013-12-19 10:58:36,11.8,0,0,0.04
2013-12-19 11:46:46,11.81,0,0,0.04
2013-12-20 12:34:56,11.82,0,0,0.04
2013-12-20 1:23:07,11.82,0,0,0.04
2013-12-20 2:11:19,11.81,0,0,0.04
2013-12-20 2:59:30,11.81,0,0,0.04
2013-12-20 3:47:42,11.8,0,0,0.04
2013-12-20 4:35:54,11.8,0,0,0.04
2013-12-20 5:24:06,11.79,0,0,0.04
2013-12-20 6:12:19,11.78,0.01,0,0.04
2013-12-20 7:00:33,11.78,0,0,0.13
2013-12-20 7:48:48,11.78,0,0.01,9.41
2013-12-20 8:37:02,11.96,0,0.51,11.96
2013-12-20 9:25:17,12.14,1.18,1.5,12.13
2013-12-20 10:13:32,11.91,2.72,3.12,11.91
2013-12-20 11:01:46,12.18,2.74,3.79,12.22
2013-12-20 11:50:00,12.37,2.91,5.62,12.44
2013-12-20 12:38:15,12.77,2.35,9.97,12.94
2013-12-20 1:26:30,12.98,2.25,12.37,13.17
2013-12-20 2:14:46,12.97,2.26,11.57,13.16
2013-12-20 3:03:02,13,1.97,10.8,13.17
2013-12-20 3:51:18,12.92,1.87,8.45,13.04
2013-12-20 4:39:34,12.84,2.29,5.98,12.91
2013-12-20 5:27:51,12.62,2.77,2.78,12.68
2013-12-20 6:16:07,12.43,2.46,0.58,12.4
2013-12-20 7:04:24,12.24,3.63,0.01,8.35
2013-12-20 7:52:47,12.11,4.37,0,0.05
2013-12-20 8:41:11,12.04,3.62,0,0.04
2013-12-20 9:29:35,11.92,3.9,0,0.04
2013-12-20 10:17:59,11.8,4.03,0,0.04
2013-12-20 11:06:24,11.78,3.49,0,0.04
2013-12-20 11:54:48,11.72,3.39,0,0.04
2013-12-21 12:43:13,11.66,3,0,0.04
2013-12-21 1:31:39,11.6,2.79,0,0.04
2013-12-21 2:20:05,11.59,2.68,0,0.04
2013-12-21 3:08:31,11.52,2.69,0,0.04
2013-12-21 3:56:57,11.46,2.73,0,0.04
2013-12-21 4:45:25,11.51,1.43,0,0.04
2013-12-21 5:33:52,11.67,0.02,0,0.04
2013-12-21 6:22:19,11.69,0.02,0,0.04
2013-12-21 7:10:46,11.7,0.02,0,1.47
2013-12-21 7:59:13,11.75,0.02,0.07,11.6
2013-12-21 8:47:41,11.96,0.02,0.56,11.97
2013-12-21 9:36:08,11.9,1.47,0.95,11.91
2013-12-21 10:24:36,11.64,2.29,1.3,11.63
2013-12-21 11:13:04,11.8,2.08,2.47,11.83
2013-12-21 12:01:32,12.39,2.35,6.02,12.49
2013-12-21 12:50:01,12.87,1.91,10.57,13.01
2013-12-21 1:38:29,12.97,1.79,13.04,13.17
2013-12-21 2:26:58,12.99,1.79,12.44,13.17
2013-12-21 3:15:26,12.98,1.99,10.72,13.12
2013-12-21 4:04:01,12.94,1.89,8.65,13.08
2013-12-21 4:52:36,12.88,1.83,5.96,12.94
2013-12-21 5:41:13,12.68,2.24,2.75,12.73
2013-12-21 6:30:21,12.5,2.24,0.43,12.49
2013-12-21 7:19:55,12.25,4.68,0,5.72
2013-12-21 8:09:32,12.08,5.17,0,0.04
2013-12-21 8:58:09,11.96,3.83,0,0.04
2013-12-21 9:46:46,11.85,3.98,0,0.04
2013-12-21 10:35:23,11.78,3.62,0,0.04
2013-12-21 11:24:01,11.7,3.65,0,0.04
2013-12-22 12:12:39,11.7,3.62,0,0.04
2013-12-22 1:01:17,11.64,3.28,0,0.04
2013-12-22 1:49:56,11.58,2.93,0,0.04
2013-12-22 2:38:35,11.53,2.71,0,0.04
2013-12-22 3:27:14,11.47,2.69,0,0.04
2013-12-22 4:15:53,11.43,2.55,0,0.04
2013-12-22 5:04:33,11.62,0.1,0,0.04
2013-12-22 5:53:13,11.67,0.01,0,0.04
2013-12-22 6:41:53,11.68,0.02,0,0.04
2013-12-22 7:30:34,11.68,0.02,0.01,6.14
2013-12-22 8:19:14,11.81,0.02,0.21,11.81
2013-12-22 9:07:55,11.91,0.56,0.54,11.91
2013-12-22 9:56:36,11.64,1.96,1.01,11.65
2013-12-22 10:45:17,11.51,2.71,1.37,11.5
2013-12-22 11:33:58,11.89,2.12,3.32,11.95
2013-12-22 12:22:43,12.73,1.54,8.57,12.88
2013-12-22 1:11:30,12.93,1.05,11.21,13.09
2013-12-22 2:00:18,13,1,11.96,13.26
2013-12-22 2:49:06,13.02,1.29,11.78,13.24
2013-12-22 3:37:54,13.01,1.47,10.05,13.16
2013-12-22 4:26:43,12.93,2.23,7.64,13.04
2013-12-22 5:15:31,12.77,2.29,4.33,12.82
2013-12-22 6:04:20,12.58,2.13,1.36,12.58
2013-12-22 6:53:09,12.41,2.18,0.04,11.78
2013-12-22 7:41:58,12.25,4.12,0,0.56
2013-12-22 8:30:47,12.06,4.65,0,0.04
2013-12-22 9:19:37,11.85,6.06,0,0.05
2013-12-22 10:08:27,11.61,7.11,0,0.04
2013-12-22 10:57:18,11.46,7.27,0,0.04
2013-12-22 11:46:08,11.37,5.58,0,0.04
2013-12-23 12:34:59,11.74,0.01,0,0.04
2013-12-23 1:23:50,11.8,0.01,0,0.04
2013-12-23 2:12:42,11.81,0.01,0,0.04
2013-12-23 3:01:34,11.81,0.02,0,0.04
2013-12-23 3:50:26,11.81,0.02,0,0.04
2013-12-23 4:39:18,11.81,0.02,0,0.04
2013-12-23 5:28:10,11.8,0.02,0,0.04
2013-12-23 6:17:02,11.8,0.03,0,0.04
2013-12-23 7:05:55,11.79,0.03,0,0.65
2013-12-23 7:54:47,11.82,0.04,0.04,11.55
2013-12-23 8:43:47,11.75,1.57,0.41,11.73
2013-12-23 9:32:46,11.66,2.05,0.89,11.66
2013-12-23 10:21:46,11.82,1.55,1.49,11.83
2013-12-23 11:10:46,11.94,2.31,2.67,11.99
2013-12-23 11:59:46,12.36,2.45,6.39,12.45
2013-12-23 12:48:46,12.85,2.28,10.44,13
2013-12-23 1:37:46,12.95,2.54,12.69,13.18
2013-12-23 2:26:46,13,2.09,12.24,13.23
2013-12-23 3:15:47,12.99,2.14,10.66,13.19
2013-12-23 4:04:49,12.98,2.01,8.33,13.09
2013-12-23 4:53:50,12.84,2.38,5.75,12.91
2013-12-23 5:42:52,12.62,2.9,2.84,12.68
2013-12-23 6:31:54,12.42,2.56,0.36,12.43
2013-12-23 7:20:56,12.23,4.35,0,5.7
2013-12-23 8:09:58,12.07,4.87,0,0.04
2013-12-23 8:59:00,11.94,4.55,0,0.04
2013-12-23 9:48:02,11.81,5.37,0,0.04
2013-12-23 10:37:05,11.67,4.65,0,0.04
2013-12-23 11:26:08,11.57,4.88,0,0.04
2013-12-24 12:15:12,11.49,5.07,0,0.04
2013-12-24 1:04:16,11.51,3.47,0,0.04
2013-12-24 1:53:20,11.46,3.15,0,0.04
2013-12-24 2:42:24,11.4,2.89,0,0.04
2013-12-24 3:31:29,11.47,1.53,0,0.04
2013-12-24 4:20:34,11.63,0.02,0,0.04
2013-12-24 5:09:45,11.66,0.02,0,0.04
2013-12-24 5:58:56,11.67,0.03,0,0.04
2013-12-24 6:48:08,11.66,0.03,0,0.05
2013-12-24 7:37:20,11.66,0.04,0.01,7.41
2013-12-24 8:26:32,11.79,0.04,0.21,11.78
2013-12-24 9:15:45,12.05,0.03,0.75,12.05
2013-12-24 10:04:58,12.27,0.03,1.29,12.29
2013-12-24 10:54:10,12.4,0.79,2.19,12.42
2013-12-24 11:43:23,12.46,2.18,4.43,12.54
2013-12-24 12:32:36,12.8,1.53,8.67,12.92
2013-12-24 1:21:50,12.93,0.64,10.98,13.1
2013-12-24 2:11:03,12.95,1.49,11.49,13.13
2013-12-24 3:00:16,12.89,1.58,9.57,13.11
2013-12-24 3:49:30,12.93,1.64,8.04,13.07
2013-12-24 4:38:44,12.83,1.77,5.39,12.91
2013-12-24 5:27:58,12.77,1.5,3.17,12.78
2013-12-24 6:17:12,12.55,1.97,0.79,12.53
2013-12-24 7:06:27,12.42,2.08,0.02,8.96
2013-12-24 7:57:17,12.19,4.85,0,0.07
2013-12-24 8:46:32,12.11,3.38,0,0.04
2013-12-24 9:35:47,11.94,4.71,0,0.04
2013-12-24 10:25:03,11.83,4.95,0,0.04
2013-12-24 11:14:18,11.81,3.71,0,0.04
2013-12-25 12:03:34,11.74,3.32,0,0.04
2013-12-25 12:52:51,11.7,2.88,0,0.04
2013-12-25 1:42:13,11.66,2.99,0,0.04
2013-12-25 2:31:37,11.6,2.63,0,0.04
2013-12-25 3:21:00,11.56,2.61,0,0.04
2013-12-25 4:10:25,11.5,2.63,0,0.04
2013-12-25 4:59:50,11.43,2.62,0,0.04
2013-12-25 5:49:14,11.55,0.88,0,0.04
2013-12-25 6:38:39,11.68,0.02,0,0.04
2013-12-25 7:28:04,11.69,0.03,0,5.36
2013-12-25 8:17:30,11.8,0.03,0.22,11.79
2013-12-25 9:06:54,12.04,0.03,0.74,12.05
2013-12-25 9:56:20,12.04,1.63,1.52,12.06
2013-12-25 10:45:45,12.12,1.47,2.52,12.13
2013-12-25 11:35:11,12.36,2.48,4.13,12.44
2013-12-25 12:24:36,12.65,2.16,7.04,12.73
2013-12-25 1:14:02,12.86,1.52,9.64,13.01
2013-12-25 2:00:13,12.82,1.52,9.53,12.99
2013-12-25 2:47:26,12.65,1.19,3.86,12.69
2013-12-25 3:36:52,12.49,0.97,1.5,12.51
2013-12-25 4:26:19,12.46,1.48,1.36,12.47
2013-12-25 5:15:46,12.42,1.48,1.12,12.41
2013-12-25 6:05:13,12.27,2.09,0.27,12.26
2013-12-25 6:54:40,12.01,4.33,0.02,10.98
2013-12-25 7:44:08,11.81,4.36,0,0.44
2013-12-25 8:33:36,11.64,3.93,0,0.04
2013-12-25 9:23:31,11.52,4.49,0,0.04
2013-12-25 10:09:42,11.55,2.09,0,0.04
2013-12-25 10:47:22,11.75,0,0,0.04
2013-12-25 11:36:31,11.77,0,0,0.04
2013-12-26 12:26:06,11.78,0,0,0.04
2013-12-26 1:15:43,11.78,0,0,0.04
2013-12-26 2:05:19,11.78,0.01,0,0.04
2013-12-26 2:54:55,11.77,0.01,0,0.04
2013-12-26 3:44:32,11.76,0.01,0,0.04
2013-12-26 4:34:08,11.76,0.01,0,0.04
2013-12-26 5:23:46,11.76,0.01,0,0.04
2013-12-26 6:13:23,11.75,0.01,0,0.04
2013-12-26 7:03:00,11.74,0.01,0,0.1
2013-12-26 7:52:39,11.75,0.01,0.01,9.57
2013-12-26 8:42:17,11.91,0.01,0.53,11.91
2013-12-26 9:31:55,11.59,3.67,1.09,11.57
2013-12-26 10:21:33,11.42,3.29,1.1,11.45
2013-12-26 11:11:11,11.42,3.47,1.99,11.42
2013-12-26 12:00:50,11.46,3.96,3.2,11.48
2013-12-26 12:50:28,11.84,3.42,4.82,11.9
2013-12-26 1:40:07,11.86,3.54,3.34,11.88
2013-12-26 2:29:45,11.9,3.5,4.22,11.98
2013-12-26 3:19:24,12.11,2.44,5.18,12.18
2013-12-26 4:09:04,12.01,3.5,2.86,12.02
2013-12-26 4:58:43,12.1,2.78,3.88,12.15
2013-12-26 5:48:23,11.71,2.49,0.8,11.7
2013-12-26 6:38:04,11.68,0.13,0.08,11.65
2013-12-26 7:27:50,11.67,0,0,3.05
2013-12-26 8:17:37,11.63,0,0,0.04
2013-12-26 9:07:24,11.61,0.03,0,0.04
2013-12-26 9:56:14,11.6,0,0,0.04
2013-12-26 10:46:02,11.59,0,0,0.04
2013-12-26 11:35:50,11.59,0.01,0,0.04
2013-12-27 12:25:38,11.58,0.01,0,0.04
2013-12-27 1:15:27,11.58,0.01,0,0.04
2013-12-27 2:05:17,11.57,0.01,0,0.04
2013-12-27 2:55:07,11.56,0.01,0,0.04
2013-12-27 3:44:56,11.56,0.02,0,0.04
2013-12-27 4:34:46,11.56,0.02,0,0.04
2013-12-27 5:24:36,11.56,0.02,0,0.04
2013-12-27 6:14:26,11.55,0.02,0,0.04
2013-12-27 7:04:16,11.55,0.02,0,0.17
2013-12-27 7:54:07,11.57,0.02,0.04,10.15
2013-12-27 8:43:58,11.9,0.02,0.61,11.9
2013-12-27 9:33:49,12.01,1.31,1.06,12.01
2013-12-27 10:23:41,12.08,2.2,2.71,12.13
2013-12-27 11:13:33,12.2,2.45,2.49,12.24
2013-12-27 12:03:25,12.47,2.34,5.02,12.53
2013-12-27 12:53:16,12.69,2.25,6.96,12.82
2013-12-27 1:43:08,12.8,2.14,8.45,12.92
2013-12-27 2:33:00,12.81,1.61,8.67,12.94
2013-12-27 3:22:52,12.72,1.69,5.96,12.8
2013-12-27 4:12:49,12.6,2.68,5.58,12.7
2013-12-27 5:02:49,12.64,2.6,4.54,12.67
2013-12-27 5:51:43,12.45,2.81,1.64,12.46
2013-12-27 6:40:24,12.2,3.21,0.18,12.22
2013-12-27 7:30:25,11.93,5.46,0,3.77
2013-12-27 8:20:26,11.66,5.97,0,0.04
2013-12-27 9:10:27,11.48,4.45,0,0.04
2013-12-27 10:00:29,11.67,0.9,0,0.04
2013-12-27 10:50:32,11.79,0,0,0.04
2013-12-27 11:40:37,11.81,0,0,0.04
2013-12-28 12:30:40,11.8,0,0,0.04
2013-12-28 1:20:44,11.8,0,0,0.04
2013-12-28 2:10:47,11.79,0.01,0,0.04
2013-12-28 3:00:50,11.78,0.01,0,0.04
2013-12-28 3:50:54,11.78,0.01,0,0.04
2013-12-28 4:40:58,11.77,0.01,0,0.04
2013-12-28 5:31:01,11.77,0.01,0,0.04
2013-12-28 6:21:05,11.76,0.02,0,0.04
2013-12-28 7:11:08,11.76,0.02,0,1.05
2013-12-28 8:01:14,11.7,0.8,0.02,11.47
2013-12-28 8:51:21,11.47,2.68,0.29,11.46
2013-12-28 9:41:28,11.51,2.15,0.66,11.51
2013-12-28 10:31:35,11.46,2.48,1.14,11.47
2013-12-28 11:21:41,11.41,3.27,2.34,11.46
2013-12-28 12:11:48,12.22,3.07,6.41,12.31
2013-12-28 1:01:56,12.75,2.82,9.28,12.9
2013-12-28 1:52:24,12.98,2.09,12.04,13.15
2013-12-28 2:42:35,12.93,2.15,11.15,13.1
2013-12-28 3:33:17,12.9,1.93,9.47,13.05
2013-12-28 4:20:04,12.84,1.56,7.21,12.95
2013-12-28 5:05:37,12.76,1.4,4.65,12.82
2013-12-28 5:55:49,12.62,1.3,1.88,12.64
2013-12-28 6:46:03,12.45,1.65,0.12,12.44
2013-12-28 7:36:17,12.15,4.77,0,2.48
2013-12-28 8:26:33,11.9,4.94,0,0.04
2013-12-28 9:16:47,11.82,3.57,0,0.04
2013-12-28 10:07:02,11.69,3.68,0,0.04
2013-12-28 10:57:17,11.6,3.53,0,0.04
2013-12-28 11:47:32,11.5,3.43,0,0.04
2013-12-29 12:37:47,11.44,3.16,0.01,0.04
2013-12-29 1:28:02,11.37,3.15,0,0.04
2013-12-29 2:18:17,11.54,0.7,0,0.04
2013-12-29 3:08:33,11.67,0,0,0.04
2013-12-29 3:58:49,11.68,0.01,0,0.04
2013-12-29 4:49:06,11.68,0.01,0,0.04
2013-12-29 5:39:23,11.67,0.01,0,0.04
2013-12-29 6:29:41,11.68,0.01,0,0.04
2013-12-29 7:20:14,11.67,0.02,0,2.84
2013-12-29 8:10:33,11.72,0.02,0.04,11.69
2013-12-29 9:00:51,11.66,1.32,0.32,11.64
2013-12-29 9:51:10,11.57,1.62,0.65,11.57
2013-12-29 10:41:32,11.76,1.46,1.34,11.78
2013-12-29 11:31:56,12.24,0.94,2.96,12.28
2013-12-29 12:22:59,12.71,0.7,7.21,12.83
2013-12-29 1:12:06,12.9,0.63,9.77,13.05
2013-12-29 2:02:31,13.01,0.58,12.14,13.2
2013-12-29 2:53:18,13.03,0.5,11.06,13.2
2013-12-29 3:44:28,13.02,0.49,9.19,13.15
2013-12-29 4:35:16,12.93,0.89,6.42,13.12
2013-12-29 5:25:43,12.82,1.14,3.74,12.87
2013-12-29 6:16:09,12.64,1.65,1,12.61
2013-12-29 7:06:36,12.39,3.67,0.01,9.44
2013-12-29 7:57:03,12.17,4.48,0,0.06
2013-12-29 8:47:29,12.06,4.48,0,0.04
2013-12-29 9:37:56,11.89,5.04,0,0.04
2013-12-29 10:28:23,11.79,4.93,0,0.04
2013-12-29 11:18:50,11.72,4.25,0,0.04
2013-12-30 12:09:17,11.65,3.52,0,0.04
2013-12-30 12:59:44,11.53,4.99,0,0.04
2013-12-30 1:45:29,11.48,3.98,0,0.04
2013-12-30 2:22:43,11.45,3.3,0,0.04
2013-12-30 3:00:03,11.4,3.29,0,0.04
2013-12-30 3:46:40,11.4,2.65,0,0.04
2013-12-30 4:37:10,11.64,0.02,0,0.04
2013-12-30 5:27:40,11.68,0.02,0,0.04
2013-12-30 6:18:21,11.68,0.02,0,0.04
2013-12-30 6:55:07,11.68,0.02,0,0.05
2013-12-30 7:44:16,11.68,0.02,0,7.95
2013-12-30 8:34:54,11.79,0.03,0.12,11.77
2013-12-30 9:25:31,11.62,1.84,0.48,11.62
2013-12-30 10:16:09,11.53,2.26,0.85,11.54
2013-12-30 11:06:46,11.63,2.4,2.2,11.65
2013-12-30 11:57:24,11.99,3.2,5.01,12.04
2013-12-30 12:49:15,12.25,4.28,8.47,12.32
2013-12-30 1:33:14,11.5,5.69,12.31,11.72
2013-12-30 2:22:19,12.36,3.93,11.83,12.46
2013-12-30 3:00:35,12.85,3,10.16,13.02
2013-12-30 3:38:00,12.84,2.37,9.57,13
2013-12-30 4:15:23,12.69,2.13,6.19,12.76
2013-12-30 4:53:30,12.61,2.53,5.53,12.71
2013-12-30 5:30:57,12.52,2.22,3.11,12.56
2013-12-30 6:09:09,12.35,2.61,1.49,12.38
2013-12-30 6:46:30,12.2,2.09,0.12,12.2
2013-12-30 7:23:58,11.94,4.71,0,3.76
2013-12-30 8:01:21,11.68,5.36,0,0.04
2013-12-30 8:38:40,11.43,5.32,0,0.04
2013-12-30 9:16:05,11.38,3.14,0,0.04
2013-12-30 9:53:25,11.53,1.79,0,0.04
2013-12-30 10:30:44,11.67,0,0,0.04
2013-12-30 11:08:00,11.71,0.01,0,0.04
2013-12-30 11:45:27,11.72,0.01,0,0.04
2013-12-31 12:22:50,11.72,0.01,0,0.04
2013-12-31 1:00:16,11.72,0.01,0,0.04
2013-12-31 1:38:27,11.71,0.01,0,0.04
2013-12-31 2:15:56,11.71,0.01,0,0.04
2013-12-31 2:53:19,11.7,0.02,0,0.04
2013-12-31 3:30:43,11.7,0.02,0,0.04
2013-12-31 4:08:06,11.69,0.02,0,0.04
2013-12-31 4:45:33,11.69,0.02,0,0.04
2013-12-31 5:23:44,11.69,0.02,0,0.04
2013-12-31 6:01:13,11.68,0.03,0,0.04
2013-12-31 6:38:37,11.68,0.03,0,0.04
2013-12-31 7:16:52,11.67,0.03,0,1.65
2013-12-31 7:54:18,11.67,0.03,0.01,11.49
2013-12-31 8:31:52,11.81,0.03,0.24,11.8
2013-12-31 9:09:22,11.83,1.29,0.63,11.82
2013-12-31 9:46:42,11.41,3.24,1.05,11.34
2013-12-31 10:24:08,11.38,2.94,1.46,11.39
2013-12-31 11:01:41,11.52,2.45,2.42,11.52
2013-12-31 11:39:03,11.93,2.34,4.08,11.95
2013-12-31 12:15:42,12.5,2.22,7.08,12.63
2013-12-31 12:53:12,12.79,2.06,8.77,12.92
2013-12-31 1:31:26,12.92,2.19,11.37,13.11
2013-12-31 2:08:53,12.97,0.99,11.82,13.17
2013-12-31 2:46:27,12.98,0.65,10.67,13.15
2013-12-31 3:23:55,12.94,0.8,9.3,13.1
2013-12-31 4:01:19,12.86,1.48,7.19,13.07
2013-12-31 4:38:47,12.79,1.93,5.64,12.86
2013-12-31 5:16:21,12.66,1.88,2.76,12.68
2013-12-31 5:54:41,12.57,1.87,1.7,12.59
2013-12-31 6:31:23,12.42,1.9,0.25,12.47
2013-12-31 7:09:43,12.26,3.71,0,7.99
2013-12-31 7:47:12,11.91,7.44,0,0.07
2013-12-31 8:25:32,11.88,3.89,0,0.04
2013-12-31 9:03:10,11.79,4.01,0,0.04
2013-12-31 9:41:33,11.6,5.75,0,0.04
2013-12-31 10:19:06,11.51,5.66,0,0.04
2013-12-31 10:57:22,11.43,5.39,0,0.04
2013-12-31 11:34:57,11.39,4.17,0,0.04
2014-01-01 12:12:00,11.7,0.01,0,0.04
2014-01-01 12:49:00,11.74,0.01,0,0.04
2014-01-01 1:26:00,11.76,0.01,0,0.04
2014-01-01 2:03:00,11.76,0.02,0,0.04
2014-01-01 2:38:00,11.76,0.02,0,0.04
2014-01-01 3:16:00,11.76,0.02,0,0.04
2014-01-01 3:54:00,11.76,0.02,0,0.04
2014-01-01 4:32:00,11.76,0.02,0,0.04
2014-01-01 5:08:00,11.75,0.02,0,0.04
2014-01-01 5:47:00,11.75,0.03,0,0.04
2014-01-01 6:38:00,11.75,0.03,0,0.04
2014-01-01 7:29:00,11.74,0.04,0,4.56
2014-01-01 8:20:00,11.8,0.04,0.12,11.8
2014-01-01 9:11:00,11.69,2.38,0.72,11.67
2014-01-01 10:02:00,11.48,3.31,1.34,11.51
2014-01-01 10:52:00,11.63,2.62,2.36,11.63
2014-01-01 11:44:00,11.96,2.95,4.34,11.98
2014-01-01 12:35:00,12.56,3.23,8.25,12.66
2014-01-01 1:26:00,12.78,3.21,10.56,12.98
2014-01-01 2:17:00,12.88,3.16,11.38,12.99
2014-01-01 2:57:00,12.83,3.15,10.14,12.96
2014-01-01 3:33:00,12.74,3.15,8.59,12.87
2014-01-01 4:12:00,12.73,3.06,6.97,12.81
2014-01-01 4:48:00,12.52,3.36,4.22,12.62
2014-01-01 5:28:00,12.41,3.33,2.77,12.43
2014-01-01 6:20:00,12.2,3.29,0.68,12.21
2014-01-01 7:11:00,11.92,5.27,0.01,8.74
2014-01-01 7:58:00,11.65,5.41,0,0.05
2014-01-01 8:43:00,11.43,6.3,0,0.04
2014-01-01 9:21:00,11.6,1.81,0,0.04
2014-01-01 10:12:00,11.8,0,0,0.04
2014-01-01 11:03:00,11.82,0,0,0.04
2014-01-01 11:54:00,11.83,0,0,0.04
2014-01-02 12:45:00,11.82,0,0,0.04
2014-01-02 1:36:00,11.82,0,0,0.04
2014-01-02 2:27:00,11.81,0.01,0,0.04
2014-01-02 3:19:00,11.81,0.01,0,0.04
2014-01-02 4:10:00,11.8,0.01,0,0.04
2014-01-02 5:01:00,11.8,0.01,0,0.04
2014-01-02 5:52:00,11.79,0.01,0,0.04
2014-01-02 6:43:00,11.79,0.01,0,0.04
2014-01-02 7:34:00,11.78,0.02,0,5.33
2014-01-02 8:25:00,11.89,0.02,0.18,11.88
2014-01-02 9:17:00,12.11,0.02,0.75,12.1
2014-01-02 10:08:00,11.7,3.73,1.21,11.7
2014-01-02 10:59:00,11.56,3.4,2.44,11.56
2014-01-02 11:50:00,11.74,3.54,4.51,11.78
2014-01-02 12:42:00,12.44,3.64,8.29,12.55
2014-01-02 1:33:00,12.81,3.09,10.7,12.98
2014-01-02 2:24:00,12.87,3.4,11.31,13.03
2014-01-02 3:15:00,12.77,3.09,9.05,12.9
2014-01-02 4:07:00,12.65,3.56,6.39,12.71
2014-01-02 4:58:00,12.5,3.54,4.93,12.55
2014-01-02 5:49:00,12.36,3.19,2.37,12.35
2014-01-02 6:40:00,12.15,3.06,0.3,12.13
2014-01-02 7:32:00,11.88,4.78,0,4.29
2014-01-02 8:23:00,11.52,5.86,0,0.04
2014-01-02 9:14:00,11.44,3.98,0,0.04
2014-01-02 10:06:00,11.77,0,0,0.04
2014-01-02 10:57:00,11.8,0,0,0.04
2014-01-02 11:40:00,11.81,0,0,0.04
2014-01-03 12:17:00,11.8,0,0,0.04
2014-01-03 12:52:00,11.8,0,0,0.04
2014-01-03 1:38:00,11.79,0,0,0.04
2014-01-03 2:30:00,11.79,0,0,0.04
2014-01-03 3:21:00,11.78,0.01,0,0.04
2014-01-03 4:13:00,11.78,0.01,0,0.04
2014-01-03 5:04:00,11.77,0.01,0,0.04
2014-01-03 5:55:00,11.76,0.01,0,0.04
2014-01-03 6:47:00,11.75,0.01,0,0.04
2014-01-03 7:38:00,11.75,0.02,0,6.62
2014-01-03 8:30:00,11.85,0.02,0.17,11.85
2014-01-03 9:21:00,12.08,0.02,0.8,12.09
2014-01-03 10:13:00,12,2.4,1.55,12
2014-01-03 11:04:00,11.73,3.14,2.99,11.76
2014-01-03 11:56:00,12.33,2.16,5.03,12.4
2014-01-03 12:47:00,12.74,2.08,8.34,12.86
2014-01-03 1:39:00,12.87,2.44,9.97,12.97
2014-01-03 2:30:00,12.86,2.59,10.53,13
2014-01-03 3:22:00,12.86,1.5,8.4,13.01
2014-01-03 4:13:00,12.79,2.12,6.54,12.9
2014-01-03 5:04:00,12.69,2.28,4.41,12.76
2014-01-03 5:56:00,12.55,2.07,1.76,12.57
2014-01-03 6:47:00,12.3,3.16,0.11,12.27
2014-01-03 7:39:00,12.07,5.13,0,2.25
2014-01-03 8:30:00,11.95,5.03,0,0.05
2014-01-03 9:22:00,11.77,5,0,0.04
2014-01-03 10:13:00,11.53,6.05,0,0.04
2014-01-03 10:59:00,11.48,5.37,0,0.04
2014-01-03 11:51:00,11.47,3.61,0,0.04
2014-01-04 12:43:00,11.72,0,0,0.04
2014-01-04 1:34:00,11.75,0,0,0.04
2014-01-04 2:26:00,11.76,0,0,0.04
2014-01-04 3:18:00,11.76,0.01,0,0.04
2014-01-04 4:09:00,11.75,0.01,0,0.04
2014-01-04 5:01:00,11.74,0.01,0,0.04
2014-01-04 5:53:00,11.73,0.01,0,0.04
2014-01-04 6:44:00,11.73,0.01,0,0.04
2014-01-04 7:36:00,11.72,0.01,0,5.3
2014-01-04 8:28:00,11.77,0.02,0.04,11.76
2014-01-04 9:19:00,11.94,0.01,0.52,11.95
2014-01-04 10:11:00,11.69,2.83,1.05,11.66
2014-01-04 11:03:00,11.45,3.92,2.37,11.46
2014-01-04 11:54:00,11.65,3.83,4.89,11.71
2014-01-04 12:46:00,12.47,3.81,9.28,12.57
2014-01-04 1:38:00,12.8,3.43,11.46,12.96
2014-01-04 2:29:00,12.82,3.6,11.56,13.05
2014-01-04 3:21:00,12.78,3.46,10.07,12.91
2014-01-04 4:13:00,12.65,3.82,7.71,12.72
2014-01-04 5:04:00,12.49,3.87,4.96,12.55
2014-01-04 5:56:00,12.3,3.5,2.21,12.33
2014-01-04 6:48:00,12.12,2.82,0.21,12.08
2014-01-04 7:39:00,11.89,4.19,0,3.26
2014-01-04 8:31:00,11.61,5.36,0,0.04
2014-01-04 9:15:00,11.38,5.5,0,0.04
2014-01-04 10:05:00,11.74,0,0,0.04
2014-01-04 10:57:00,11.81,0,0,0.04
2014-01-04 11:49:00,11.81,0,0,0.04
2014-01-05 12:41:00,11.81,0,0,0.04
2014-01-05 1:32:00,11.81,0,0,0.04
2014-01-05 2:24:00,11.8,0,0,0.04
2014-01-05 3:16:00,11.79,0.01,0,0.04
2014-01-05 4:08:00,11.79,0.01,0,0.04
2014-01-05 5:00:00,11.78,0.01,0,0.04
2014-01-05 5:52:00,11.77,0.01,0,0.04
2014-01-05 6:44:00,11.77,0.01,0,0.04
2014-01-05 7:35:00,11.76,0.01,0,5.08
2014-01-05 8:27:00,11.83,0.02,0.09,11.82
2014-01-05 9:19:00,12.01,0.01,0.44,12
2014-01-05 10:11:00,12.19,0.01,0.77,12.19
2014-01-05 11:03:00,12.29,1.18,2.06,12.31
2014-01-05 11:55:00,12.38,2.6,4.51,12.45
2014-01-05 12:47:00,12.76,2.11,8.42,12.89
2014-01-05 1:38:00,12.97,1.26,11.38,13.16
2014-01-05 2:30:00,12.96,2.05,11.72,13.15
2014-01-05 3:22:00,12.95,2.2,10.21,13.11
2014-01-05 4:14:00,12.89,1.99,7.43,12.97
2014-01-05 5:06:00,12.8,2.02,5.22,12.9
2014-01-05 5:58:00,12.66,1.62,2.11,12.69
2014-01-05 6:50:00,12.48,2.3,0.17,12.38
2014-01-05 7:42:00,12.19,5.42,0.01,2.12
2014-01-05 8:34:00,12.06,5.18,0,0.04
2014-01-05 9:25:00,11.95,4.28,0,0.05
2014-01-05 10:17:00,11.83,3.7,0,0.04
2014-01-05 11:10:00,11.74,3.97,0,0.04
2014-01-06 12:00:00,11.67,3.45,0,0.04
2014-01-06 12:48:00,11.61,3.46,0,0.04
2014-01-06 1:40:00,11.59,2.59,0,0.04
2014-01-06 2:32:00,11.54,2.39,0,0.04
2014-01-06 3:24:00,11.49,2.37,0.01,0.04
2014-01-06 4:17:00,11.45,2.23,0,0.04
2014-01-06 5:09:00,11.64,0.01,0,0.04
2014-01-06 6:01:00,11.68,0.02,0,0.04
2014-01-06 6:53:00,11.68,0.02,0,0.04
2014-01-06 7:45:00,11.69,0.02,0,6.93
2014-01-06 8:37:00,11.78,0.02,0.15,11.77
2014-01-06 9:29:00,11.77,1.27,0.78,11.77
2014-01-06 10:21:00,11.5,2.73,0.92,11.49
2014-01-06 11:13:00,11.49,3.18,2.39,11.56
2014-01-06 12:05:00,12.35,2.12,5.64,12.42
2014-01-06 12:57:00,12.78,2.81,9.13,12.89
2014-01-06 1:49:00,12.77,2.94,9.88,12.94
2014-01-06 2:41:00,12.8,3.38,9.8,12.97
2014-01-06 3:34:00,12.6,2.75,5.18,12.66
2014-01-06 4:26:00,12.56,2.5,4.31,12.6
2014-01-06 5:18:00,12.41,3.07,2.41,12.45
2014-01-06 6:10:00,12.22,2.94,0.85,12.24
2014-01-06 7:02:00,11.93,4.99,0.03,10.6
2014-01-06 7:54:00,11.62,6.14,0,0.25
2014-01-06 8:46:00,11.44,4.52,0,0.04
2014-01-06 9:30:00,11.74,0,0,0.04
2014-01-06 10:19:00,11.79,0,0,0.04
2014-01-06 11:10:00,11.8,0,0,0.04
2014-01-06 11:49:00,11.8,0,0,0.04
2014-01-07 12:25:00,11.8,0,0,0.04
2014-01-07 1:00:00,11.79,0,0,0.04
2014-01-07 1:46:00,11.79,0.01,0,0.04
2014-01-07 2:39:00,11.78,0.01,0,0.04
2014-01-07 3:31:00,11.78,0.01,0,0.04
2014-01-07 4:23:00,11.77,0.01,0,0.04
2014-01-07 5:15:00,11.76,0.01,0,0.04
2014-01-07 6:08:00,11.76,0.01,0,0.04
2014-01-07 7:00:00,11.75,0.02,0,0.05
2014-01-07 7:52:00,11.75,0.02,0.02,8.71
2014-01-07 8:46:00,11.98,0.02,0.63,11.98
2014-01-07 9:40:00,12.2,1.28,1.95,12.19
2014-01-07 10:32:00,11.95,3.24,2.89,12
2014-01-07 11:24:00,12.13,3.12,4.06,12.2
2014-01-07 12:16:00,12.45,2.41,5.17,12.52
2014-01-07 1:09:00,12.78,2.75,8.83,12.87
2014-01-07 2:01:00,12.72,3.21,6.5,12.73
2014-01-07 2:53:00,12.7,3.14,8.2,12.82
2014-01-07 3:46:00,12.6,3.24,4.92,12.71
2014-01-07 4:38:00,12.63,3,6.78,12.75
2014-01-07 5:30:00,12.42,3.29,2.13,12.46
2014-01-07 6:21:00,12.16,2.96,0.27,12.14
2014-01-07 7:14:00,11.94,4.42,0.01,8.08
2014-01-07 8:08:00,11.61,5.28,0,0.05
2014-01-07 8:56:00,11.46,3.58,0,0.04
2014-01-07 9:39:00,11.75,0,0,0.04
2014-01-07 10:31:00,11.79,0,0,0.04
2014-01-07 11:24:00,11.79,0,0,0.04
2014-01-08 12:17:00,11.78,0,0,0.04
2014-01-08 1:02:00,11.77,0,0,0.04
2014-01-08 1:39:00,11.77,0,0,0.04
2014-01-08 2:20:00,11.76,0,0,0.04
2014-01-08 3:12:00,11.75,0.01,0,0.04
2014-01-08 3:50:00,11.74,0.01,0,0.04
2014-01-08 4:26:00,11.75,0.01,0,0.04
2014-01-08 5:02:00,11.73,0.01,0,0.04
2014-01-08 5:38:00,11.73,0.01,0,0.04
2014-01-08 6:13:00,11.73,0.01,0,0.04
2014-01-08 6:49:00,11.72,0.02,0,0.04
2014-01-08 7:24:00,11.72,0.02,0,3.56
2014-01-08 8:00:00,11.74,0.02,0.05,11.72
2014-01-08 8:35:00,11.92,0.02,0.5,11.93
2014-01-08 9:19:00,12.02,0.46,0.52,12
2014-01-08 10:11:00,11.53,3.25,1.36,11.53
2014-01-08 11:04:00,11.68,2.96,3.15,11.69
2014-01-08 11:57:00,11.83,3.68,4.54,11.91
2014-01-08 12:49:00,12.62,2.85,8.57,12.71
2014-01-08 1:41:00,12.83,2.89,9.88,12.96
2014-01-08 2:17:00,12.69,4.52,9.14,12.81
2014-01-08 2:58:00,12.73,3.87,10.07,12.87
2014-01-08 3:49:00,12.72,2.85,7.25,12.86
2014-01-08 4:34:00,12.53,2.47,3.92,12.6
2014-01-08 5:13:00,12.47,2.17,3,12.46
2014-01-08 5:55:00,12.35,2.26,1.09,12.35
2014-01-08 6:30:00,12.19,2.15,0.17,12.18
2014-01-08 7:05:00,12,4.08,0,8.69
2014-01-08 7:41:00,11.82,5.11,0,0.22
2014-01-08 8:16:00,11.61,4.85,0,0.04
2014-01-08 8:51:00,11.5,4.7,0,0.04
2014-01-08 9:26:00,11.42,3.93,0,0.04
2014-01-08 10:07:00,11.53,1.41,0,0.04
2014-01-08 11:00:00,11.71,0,0,0.04
2014-01-08 11:52:00,11.73,0,0,0.04
2014-01-09 12:45:00,11.72,0,0,0.04
2014-01-09 1:38:00,11.72,0,0,0.04
2014-01-09 2:30:00,11.71,0,0,0.04
2014-01-09 3:23:00,11.7,0,0,0.04
2014-01-09 4:16:00,11.69,0,0,0.04
2014-01-09 5:08:00,11.68,0,0,0.04
2014-01-09 6:01:00,11.67,0,0,0.04
2014-01-09 6:54:00,11.66,0,0,0.04
2014-01-09 7:47:00,11.66,0.01,0.01,7.08
2014-01-09 8:39:00,11.84,0.01,0.37,11.84
2014-01-09 9:32:00,11.94,0.89,0.65,11.93
2014-01-09 10:25:00,11.45,3.08,1.48,11.44
2014-01-09 11:18:00,11.54,2.83,2.57,11.54
2014-01-09 12:10:00,12.14,2.59,5.46,12.25
2014-01-09 1:03:00,12.73,2.69,8.68,12.84
2014-01-09 1:56:00,12.86,2.86,11.3,12.99
2014-01-09 2:49:00,12.73,2.82,8.69,12.86
2014-01-09 3:41:00,12.71,2.77,8.05,12.84
2014-01-09 4:34:00,12.54,3.51,5.11,12.65
2014-01-09 5:27:00,12.38,3.33,2.31,12.39
2014-01-09 6:20:00,12.19,2.54,0.54,12.19
2014-01-09 7:13:00,12.05,2.82,0.01,8.69
2014-01-09 8:06:00,11.8,3.96,0,0.06
2014-01-09 8:58:00,11.66,3.79,0,0.04
2014-01-09 9:51:00,11.46,4.19,0,0.04
2014-01-09 10:45:00,11.5,2,0,0.04
2014-01-09 11:38:00,11.71,0,0,0.04
2014-01-10 12:30:00,11.74,0,0,0.04
2014-01-10 1:23:00,11.74,0,0,0.04
2014-01-10 2:16:00,11.73,0,0,0.04
2014-01-10 3:09:00,11.72,0,0,0.04
2014-01-10 4:01:00,11.72,0,0,0.04
2014-01-10 4:54:00,11.71,0,0,0.04
2014-01-10 5:46:00,11.7,0.01,0,0.04
2014-01-10 6:39:00,11.69,0.01,0,0.04
2014-01-10 7:32:00,11.69,0.01,0,3.29
2014-01-10 8:24:00,11.75,0.01,0.11,11.73
2014-01-10 9:17:00,12.03,0.01,0.77,12.04
2014-01-10 10:10:00,11.98,1.86,1.8,11.97
2014-01-10 11:03:00,11.84,2.85,2.77,11.83
2014-01-10 11:56:00,12.05,2.86,4.24,12.12
2014-01-10 12:48:00,12.62,3.36,8.44,12.7
2014-01-10 1:41:00,12.71,3.7,9.92,12.86
2014-01-10 2:34:00,12.84,2.41,9.81,12.97
2014-01-10 3:27:00,12.78,1.95,8.46,12.92
2014-01-10 4:20:00,12.71,1.93,6.23,12.81
2014-01-10 5:13:00,12.56,2.09,3.61,12.65
2014-01-10 6:06:00,12.37,2.61,1.36,12.35
2014-01-10 6:59:00,12.14,3.4,0.08,12.14
2014-01-10 7:52:00,11.89,4.61,0,1.24
2014-01-10 8:45:00,11.74,4.14,0,0.04
2014-01-10 9:38:00,11.56,4.24,0,0.04
2014-01-10 10:31:00,11.38,3.97,0,0.04
2014-01-10 11:24:00,11.7,0,0,0.04
2014-01-11 12:17:00,11.75,0.01,0,0.04
2014-01-11 1:10:00,11.75,0.01,0,0.04
2014-01-11 2:03:00,11.75,0.01,0,0.04
2014-01-11 2:56:00,11.75,0.01,0,0.04
2014-01-11 3:50:00,11.74,0.01,0,0.04
2014-01-11 4:43:00,11.73,0.01,0,0.04
2014-01-11 5:36:00,11.72,0.02,0,0.04
2014-01-11 6:29:00,11.71,0.02,0,0.04
2014-01-11 7:22:00,11.7,0.02,0,1.73
2014-01-11 8:15:00,11.71,0.22,0.08,11.69
2014-01-11 9:08:00,11.53,1.69,0.56,11.52
2014-01-11 10:02:00,11.58,1.59,1.09,11.62
2014-01-11 10:55:00,11.81,1.97,2.62,11.85
2014-01-11 11:48:00,11.99,3.38,4.19,12
2014-01-11 12:41:00,12.54,3.09,7.79,12.66
2014-01-11 1:34:00,12.8,3.16,9.25,12.92
2014-01-11 2:27:00,12.81,2.78,9.81,12.97
2014-01-11 3:21:00,12.78,2.65,8.52,12.91
2014-01-11 4:14:00,12.71,2.48,6.41,12.83
2014-01-11 5:07:00,12.6,2.43,3.88,12.66
2014-01-11 6:00:00,12.37,2.57,1.47,12.35
2014-01-11 6:54:00,12.16,3.65,0.11,12.1
2014-01-11 7:47:00,11.81,5.17,0.01,1.9
2014-01-11 8:40:00,11.56,5.09,0,0.04
2014-01-11 9:33:00,11.42,3.86,0,0.04
2014-01-11 10:27:00,11.75,0,0,0.04
2014-01-11 11:20:00,11.78,0.01,0,0.04
2014-01-12 12:13:00,11.79,0.01,0,0.04
2014-01-12 1:07:00,11.78,0.01,0,0.04
2014-01-12 2:00:00,11.78,0.01,0,0.04
2014-01-12 2:53:00,11.77,0.01,0,0.04
2014-01-12 3:46:00,11.77,0.02,0,0.04
2014-01-12 4:40:00,11.76,0.02,0,0.04
2014-01-12 5:33:00,11.75,0.02,0,0.04
2014-01-12 6:26:00,11.75,0.02,0,0.04
2014-01-12 7:19:00,11.75,0.02,0,1.41
2014-01-12 8:13:00,11.77,0.02,0.07,11.71
2014-01-12 9:06:00,11.53,2.65,0.51,11.51
2014-01-12 9:59:00,11.41,3.09,1.09,11.41
2014-01-12 10:53:00,11.6,2.66,2.96,11.64
2014-01-12 11:46:00,12.32,2.25,4.67,12.38
2014-01-12 12:37:00,12.72,2.72,8.51,12.86
2014-01-12 1:20:00,12.79,3,8.88,12.9
2014-01-12 2:13:00,12.89,2.59,10.69,13.03
2014-01-12 2:53:00,12.85,2.74,9.68,13
2014-01-12 3:46:00,12.78,2.54,7.55,12.87
2014-01-12 4:40:00,12.65,2.62,4.91,12.73
2014-01-12 5:33:00,12.38,3.07,2.18,12.41
2014-01-12 6:27:00,12.22,2.55,0.36,12.22
2014-01-12 7:20:00,11.9,4.87,0,7.89
2014-01-12 8:14:00,11.53,6.79,0,0.05
2014-01-12 9:07:00,11.56,2.32,0,0.04
2014-01-12 10:01:00,11.81,0,0,0.04
2014-01-12 10:54:00,11.83,0,0,0.04
2014-01-12 11:48:00,11.84,0,0,0.04
2014-01-13 12:41:49,11.83,0,0,0.04
2014-01-13 1:35:20,11.83,0,0,0.04
2014-01-13 2:28:51,11.82,0,0,0.04
2014-01-13 3:22:22,11.82,0,0,0.04
2014-01-13 4:15:53,11.81,0.01,0,0.04
2014-01-13 5:09:24,11.8,0.01,0,0.04
2014-01-13 6:02:54,11.79,0.01,0,0.04
2014-01-13 6:56:26,11.79,0.01,0,0.04
2014-01-13 7:49:58,11.79,0.01,0.01,7.91
2014-01-13 8:43:28,11.88,0.01,0.12,11.88
2014-01-13 9:36:59,12.12,0.01,0.88,12.12
2014-01-13 10:30:34,12.35,0,1.6,12.36
2014-01-13 11:24:13,12.62,0.16,3.94,12.68
2014-01-13 12:17:51,12.84,0.15,6.86,12.98
2014-01-13 1:11:30,12.97,0.12,9.46,13.15
2014-01-13 2:05:09,13.07,0.65,11.3,13.22
2014-01-13 2:58:48,12.95,2.53,10.38,13.12
2014-01-13 3:52:27,12.85,2.43,7.3,12.97
2014-01-13 4:46:06,12.83,2.76,5.92,12.96
2014-01-13 5:39:44,12.62,3.27,2.96,12.65
2014-01-13 6:33:24,12.38,3.12,0.61,12.34
2014-01-13 7:26:48,12.21,4.48,0.01,7.07
2014-01-13 8:13:49,12.02,5.49,0,0.04
2014-01-13 9:03:05,11.92,5.1,0,0.04
2014-01-13 9:57:22,11.77,5.07,0.01,0.05
2014-01-13 10:51:01,11.71,4.39,0,0.05
2014-01-13 11:44:17,11.57,4.62,0,0.05
2014-01-14 12:37:57,11.52,4.06,0,0.05
2014-01-14 1:31:37,11.46,3.44,0,0.05
2014-01-14 2:25:19,11.41,3.05,0,0.04
2014-01-14 3:19:03,11.51,1.19,0,0.04
2014-01-14 4:12:49,11.67,0,0,0.04
2014-01-14 5:06:35,11.68,0,0,0.04
2014-01-14 6:00:21,11.68,0,0,0.04
2014-01-14 6:54:07,11.68,0,0,0.04
2014-01-14 7:47:53,11.68,0.01,0.01,7.1
2014-01-14 8:41:39,11.82,0.01,0.27,11.81
2014-01-14 9:35:29,12.11,0.01,0.96,12.12
2014-01-14 10:29:20,12.33,0,1.68,12.34
2014-01-14 11:23:09,12.57,0.14,4.01,12.65
2014-01-14 12:17:00,12.78,0.16,7.27,12.93
2014-01-14 1:10:52,12.85,0.14,9.17,13.01
2014-01-14 2:04:45,12.95,0.11,11,13.16
2014-01-14 2:58:38,12.86,2.37,9.97,13.03
2014-01-14 3:52:32,12.79,3.24,7.74,12.93
2014-01-14 4:46:27,12.64,3.64,5.77,12.7
2014-01-14 5:40:17,12.45,3.99,2.76,12.46
2014-01-14 6:34:11,12.24,4.44,0.69,12.26
2014-01-14 7:28:05,12.02,5.11,0,6.63
2014-01-14 8:21:59,11.81,6.01,0,0.05
2014-01-14 9:15:53,11.65,5.06,0,0.05
2014-01-14 10:09:47,11.52,5.02,0,0.05
2014-01-14 11:03:41,11.4,4.69,0,0.05
2014-01-14 11:58:27,11.53,1.79,0,0.06
2014-01-15 12:52:21,11.73,0,0,0.06
2014-01-15 1:46:15,11.75,0,0,0.06
2014-01-15 2:40:10,11.75,0,0,0.05
2014-01-15 3:34:04,11.75,0,0,0.04
2014-01-15 4:27:58,11.75,0,0,0.04
2014-01-15 5:21:52,11.74,0.01,0,0.04
2014-01-15 6:15:47,11.74,0.01,0,0.04
2014-01-15 7:09:41,11.73,0.01,0,0.17
2014-01-15 8:03:41,11.74,0.01,0.03,10.46
2014-01-15 8:57:43,11.92,0.01,0.48,11.91
2014-01-15 9:51:45,12.21,0.01,1.25,12.23
2014-01-15 10:45:47,12.27,1.63,2.79,12.34
2014-01-15 11:39:49,12.4,2.97,4.81,12.47
2014-01-15 12:33:50,12.68,3,8.51,12.84
2014-01-15 1:27:52,12.79,3.08,9.37,12.94
2014-01-15 2:21:55,12.85,3.06,10.85,13
2014-01-15 3:15:58,12.8,2.48,9.57,12.94
2014-01-15 4:10:00,12.79,2.3,7.59,12.89
2014-01-15 5:04:02,12.68,2.24,4.82,12.77
2014-01-15 5:58:05,12.5,2.1,1.67,12.51
2014-01-15 6:52:07,12.36,1.81,0.19,12.36
2014-01-15 7:46:09,12.13,4.85,0,3.5
2014-01-15 8:40:12,12,4.42,0,0.04
2014-01-15 9:34:14,11.8,4.84,0,0.05
2014-01-15 10:28:17,11.62,4.92,0,0.06
2014-01-15 11:22:22,11.46,5.09,0,0.06
2014-01-16 12:16:31,11.47,2.48,0,0.06
2014-01-16 1:10:40,11.75,0,0,0.06
2014-01-16 2:04:50,11.77,0,0,0.06
2014-01-16 2:58:59,11.77,0,0,0.06
2014-01-16 3:53:08,11.77,0.01,0,0.06
2014-01-16 4:47:17,11.76,0.01,0,0.05
2014-01-16 5:41:27,11.76,0.01,0,0.04
2014-01-16 6:35:41,11.75,0.01,0,0.04
2014-01-16 7:29:58,11.74,0.01,0,3.37
2014-01-16 8:24:15,11.79,0.02,0.08,11.78
2014-01-16 9:18:32,11.92,0.02,0.36,11.92
2014-01-16 10:12:49,12.07,0.33,0.66,12.08
2014-01-16 11:07:06,11.95,2.79,3.47,11.99
2014-01-16 12:01:23,12.32,2.97,5.16,12.49
2014-01-16 12:56:18,12.77,2.81,10.16,12.94
2014-01-16 1:50:35,12.84,2.93,10.82,13.07
2014-01-16 2:44:53,12.91,2.15,11.42,13.1
2014-01-16 3:41:23,12.91,1.69,9.49,13.08
2014-01-16 4:33:09,12.85,1.68,7.16,12.97
2014-01-16 5:27:26,12.72,2.06,4.34,12.77
2014-01-16 6:21:43,12.5,1.88,0.99,12.47
2014-01-16 7:16:01,12.32,2.97,0.06,10.45
2014-01-16 8:10:18,12.04,6.35,0,0.1
2014-01-16 9:04:35,11.86,5.38,0,0.04
2014-01-16 9:58:53,11.82,3.99,0,0.04
2014-01-16 10:53:10,11.74,3.42,0,0.05
2014-01-16 11:47:27,11.67,3.6,0,0.06
2014-01-17 12:41:45,11.58,3.03,0,0.06
2014-01-17 1:36:02,11.54,2.88,0,0.06
2014-01-17 2:30:20,11.43,2.88,0,0.06
2014-01-17 3:24:38,11.5,1.46,0,0.06
2014-01-17 4:18:55,11.65,0.01,0,0.06
2014-01-17 5:13:14,11.67,0.01,0,0.05
2014-01-17 6:07:39,11.67,0.02,0,0.04
2014-01-17 7:02:03,11.67,0.02,0,0.05
2014-01-17 7:56:28,11.67,0.02,0.01,9.02
2014-01-17 8:50:54,11.78,0.02,0.14,11.77
2014-01-17 9:45:19,11.9,0.4,0.45,11.89
2014-01-17 10:39:44,11.56,2.79,1.84,11.58
2014-01-17 11:34:09,11.69,4.17,4.34,11.72
2014-01-17 12:28:34,12.37,3.46,8.62,12.45
2014-01-17 1:23:00,12.77,2.97,9.48,12.88
2014-01-17 2:17:27,12.87,2.73,12.01,13.09
2014-01-17 3:11:54,12.84,2.7,10.73,13.01
2014-01-17 4:06:21,12.77,2.72,8.62,12.92
2014-01-17 5:00:49,12.73,2.12,5.86,12.81
2014-01-17 5:55:19,12.59,1.9,2.84,12.62
2014-01-17 6:49:50,12.36,2.74,0.46,12.37
2014-01-17 7:44:22,12.06,4.7,0,4.28
2014-01-17 8:38:54,11.88,4.86,0,0.04
2014-01-17 9:33:26,11.68,5.42,0,0.04
2014-01-17 10:27:58,11.48,4.8,0,0.05
2014-01-17 11:22:31,11.49,2.91,0,0.04
2014-01-18 12:17:03,11.76,0.01,0,0.04
2014-01-18 1:11:35,11.79,0.01,0,0.05
2014-01-18 2:06:08,11.79,0.01,0,0.06
2014-01-18 3:00:41,11.78,0.02,0,0.06
2014-01-18 3:55:13,11.79,0.02,0,0.05
2014-01-18 4:49:54,11.78,0.02,0,0.05
2014-01-18 5:44:34,11.77,0.02,0,0.04
2014-01-18 6:39:14,11.77,0.03,0,0.04
2014-01-18 7:33:54,11.76,0.03,0.01,4.04
2014-01-18 8:28:34,11.9,0.03,0.36,11.9
2014-01-18 9:23:15,12.18,0.03,1.21,12.19
2014-01-18 10:17:55,12.4,0.13,1.97,12.43
2014-01-18 11:12:35,12.36,3.35,4.09,12.42
2014-01-18 12:07:16,12.55,3.18,6.56,12.62
2014-01-18 1:01:56,12.88,1.92,10.19,13.03
2014-01-18 1:56:36,12.93,1.82,11.09,13.11
2014-01-18 2:51:17,12.98,2.33,11.26,13.14
2014-01-18 3:45:57,12.89,2.77,9.41,13.08
2014-01-18 4:40:37,12.81,3.15,6.84,12.88
2014-01-18 5:35:59,12.63,3.16,3.81,12.69
2014-01-18 6:30:39,12.39,3.58,1.03,12.38
2014-01-18 7:25:20,12.16,4.61,0.01,8.47
2014-01-18 8:20:00,11.91,5.31,0,0.05
2014-01-18 9:14:41,11.72,5.69,0,0.04
2014-01-18 10:09:21,11.58,4.67,0,0.04
2014-01-18 11:04:01,11.51,4.48,0,0.04
2014-01-18 11:58:42,11.41,3.85,0,0.04
2014-01-19 12:53:23,11.43,2.36,0,0.04
2014-01-19 1:48:04,11.68,0.01,0,0.04
2014-01-19 2:42:46,11.7,0.02,0,0.04
2014-01-19 3:37:34,11.71,0.02,0,0.04
2014-01-19 4:32:22,11.71,0.02,0,0.04
2014-01-19 5:27:10,11.71,0.03,0,0.04
2014-01-19 6:21:59,11.71,0.03,0,0.04
2014-01-19 7:16:49,11.7,0.03,0,0.76
2014-01-19 8:11:38,11.73,0.03,0.04,11.46
2014-01-19 9:06:29,11.89,0.04,0.32,11.9
2014-01-19 10:01:20,11.53,3.24,0.88,11.5
2014-01-19 10:56:09,12.16,0.54,3.59,12.2
2014-01-19 11:51:03,12.75,0.89,6.36,12.83
2014-01-19 12:45:58,12.74,3.71,9.91,12.86
2014-01-19 1:40:53,12.77,2.98,10.77,13.02
2014-01-19 2:35:48,12.82,3.08,11.27,12.97
2014-01-19 3:30:43,12.85,2.77,9.83,13.02
2014-01-19 4:25:43,12.79,2.75,7.46,12.93
2014-01-19 5:20:38,12.67,2.58,4.52,12.78
2014-01-19 6:15:34,12.5,2.71,1.59,12.54
2014-01-19 7:10:29,12.26,3.47,0.06,11.72
2014-01-19 8:05:25,12.08,4.16,0,0.49
2014-01-19 9:00:21,11.87,4.57,0,0.04
2014-01-19 9:55:17,11.72,4.44,0,0.04
2014-01-19 10:50:12,11.59,4.92,0,0.04
2014-01-19 11:45:08,11.46,4.71,0,0.04
2014-01-20 12:40:04,11.61,1.36,0,0.04
2014-01-20 1:34:59,11.77,0.01,0,0.04
2014-01-20 2:30:00,11.79,0.02,0,0.04
2014-01-20 3:25:04,11.79,0.02,0,0.04
2014-01-20 4:20:07,11.78,0.02,0,0.04
2014-01-20 5:15:10,11.78,0.03,0,0.04
2014-01-20 6:10:13,11.77,0.03,0,0.04
2014-01-20 7:05:17,11.76,0.03,0,0.07
2014-01-20 8:00:20,11.78,0.04,0.01,9.67
2014-01-20 8:55:23,11.87,0.04,0.14,11.85
2014-01-20 9:50:27,12.04,0.16,0.59,12.05
2014-01-20 10:45:31,11.87,2.54,2.45,11.91
2014-01-20 11:40:34,12.24,3.21,5.16,12.35
2014-01-20 12:35:37,12.67,2.58,9.25,12.84
2014-01-20 1:30:40,12.85,2.85,10.32,12.98
2014-01-20 2:25:44,12.91,2.47,11.57,13.08
2014-01-20 3:20:47,12.89,2.55,10.2,13.09
2014-01-20 4:15:51,12.83,2.65,7.96,12.95
2014-01-20 5:10:54,12.75,2.25,5.07,12.8
2014-01-20 6:05:58,12.56,2.32,2.08,12.57
2014-01-20 7:01:02,12.39,2.7,0.17,12.35
2014-01-20 7:56:06,12.01,7.07,0,1.87
2014-01-20 8:51:10,11.78,7.14,0,0.04
2014-01-20 9:46:14,11.6,5.32,0,0.04
2014-01-20 10:41:19,11.45,5.53,0,0.04
2014-01-20 11:36:24,11.67,0.97,0,0.04
2014-01-21 12:31:31,11.81,0.01,0,0.04
2014-01-21 1:26:42,11.83,0.01,0,0.04
2014-01-21 2:21:54,11.82,0.01,0,0.04
2014-01-21 3:17:07,11.82,0.01,0,0.04
2014-01-21 4:12:21,11.81,0.02,0,0.04
2014-01-21 5:07:37,11.81,0.02,0,0.04
2014-01-21 6:02:53,11.8,0.02,0,0.04
2014-01-21 6:58:11,11.8,0.03,0,0.05
2014-01-21 7:53:29,11.8,0.03,0.01,8.16
2014-01-21 8:48:47,11.87,0.03,0.12,11.88
2014-01-21 9:44:06,11.75,1.88,0.56,11.74
2014-01-21 10:39:24,11.66,2.65,1.99,11.66
2014-01-21 11:34:43,12.24,2.73,5.51,12.37
2014-01-21 12:30:01,12.66,3.24,8.96,12.82
2014-01-21 1:25:20,12.83,3.22,10.95,12.96
2014-01-21 2:20:38,12.81,3.81,11.51,12.98
2014-01-21 3:15:57,12.78,3.37,9.46,12.92
2014-01-21 4:11:15,12.76,3.02,7.45,12.88
2014-01-21 5:06:34,12.67,2.47,4.85,12.75
2014-01-21 6:01:53,12.47,2.99,2.15,12.52
2014-01-21 6:54:41,12.24,3.55,0.22,12.19
2014-01-21 7:50:30,12.05,4.41,0,3.62
2014-01-21 8:37:49,11.85,4.66,0,0.04
2014-01-21 9:17:51,11.71,4.14,0,0.04
2014-01-21 10:13:10,11.57,4.93,0,0.04
2014-01-21 11:08:28,11.39,4.71,0,0.04
2014-01-22 12:03:47,11.56,1.42,0,0.04
2014-01-22 12:59:10,11.73,0.01,0,0.04
2014-01-22 1:54:36,11.74,0.01,0,0.04
2014-01-22 2:50:03,11.74,0.01,0,0.04
2014-01-22 3:45:29,11.73,0.02,0,0.04
2014-01-22 4:40:55,11.74,0.02,0,0.04
2014-01-22 5:36:22,11.73,0.02,0,0.04
2014-01-22 6:31:48,11.73,0.02,0,0.04
2014-01-22 7:27:14,11.71,0.03,0,2.51
2014-01-22 8:22:40,11.75,0.03,0.04,11.73
2014-01-22 9:18:08,11.93,0.03,0.32,11.93
2014-01-22 10:13:34,11.69,2.47,0.95,11.66
2014-01-22 11:09:00,11.89,3.39,4.56,11.95
2014-01-22 12:04:27,12.46,3.68,7.47,12.59
2014-01-22 12:59:53,12.8,3.14,10.08,12.98
2014-01-22 1:55:20,12.85,3.3,11.54,13.06
2014-01-22 2:50:47,12.83,3.24,11.01,13.01
2014-01-22 3:46:14,12.76,3.35,9.2,12.91
2014-01-22 4:42:12,12.72,3.55,6.61,12.82
2014-01-22 5:37:39,12.55,3.7,3.6,12.57
2014-01-22 6:33:07,12.35,2.77,0.87,12.32
2014-01-22 7:28:38,12.11,3.93,0,8.1
2014-01-22 8:24:08,11.88,5.1,0,0.04
2014-01-22 9:19:40,11.69,5.17,0,0.04
2014-01-22 10:15:13,11.49,5.07,0,0.04
2014-01-22 11:10:46,11.55,2.48,0,0.04
2014-01-23 12:06:21,11.79,0.01,0,0.04
2014-01-23 1:02:02,11.81,0.01,0,0.04
2014-01-23 1:57:44,11.81,0.02,0,0.04
2014-01-23 2:53:26,11.81,0.02,0,0.04
2014-01-23 3:49:07,11.79,0.02,0,0.04
2014-01-23 4:44:49,11.79,0.03,0,0.04
2014-01-23 5:40:31,11.79,0.03,0,0.04
2014-01-23 6:36:12,11.78,0.03,0,0.04
2014-01-23 7:31:54,11.77,0.04,0,3.26
2014-01-23 8:27:36,11.83,0.04,0.05,11.81
2014-01-23 9:23:18,11.98,0.04,0.36,11.97
2014-01-23 10:18:59,11.68,3.33,1.07,11.71
2014-01-23 11:14:41,12,3.58,4.9,12.03
2014-01-23 12:10:23,12.52,3.52,7.81,12.66
2014-01-23 1:06:04,12.84,3.35,10.44,12.99
2014-01-23 2:01:46,12.84,4.03,11.51,13.09
2014-01-23 2:57:28,12.8,4.23,10.54,12.96
2014-01-23 3:53:09,12.79,3.57,8.86,12.88
2014-01-23 4:48:51,12.7,2.99,6.34,12.83
2014-01-23 5:39:49,12.49,3.79,3.31,12.56
2014-01-23 6:35:31,12.2,4.12,0.77,12.18
2014-01-23 7:31:12,12.02,3.62,0.01,7.23
2014-01-23 8:26:54,11.79,5.07,0,0.04
2014-01-23 9:22:36,11.54,5.71,0,0.04
2014-01-23 10:18:18,11.62,2.45,0,0.04
2014-01-23 11:14:00,11.83,0.01,0,0.04
2014-01-24 12:09:50,11.85,0.01,0,0.04
2014-01-24 1:05:39,11.85,0.01,0,0.04
2014-01-24 2:01:29,11.84,0.02,0,0.04
2014-01-24 2:57:18,11.83,0.02,0,0.04
2014-01-24 3:53:07,11.83,0.02,0,0.04
2014-01-24 4:48:57,11.82,0.03,0,0.04
2014-01-24 5:44:46,11.82,0.03,0,0.04
2014-01-24 6:40:36,11.81,0.03,0,0.04
2014-01-24 7:36:27,11.8,0.04,0,4.34
2014-01-24 8:32:18,11.88,0.04,0.14,11.88
2014-01-24 9:28:08,12.04,0.04,0.34,12.03
2014-01-24 10:23:59,12.24,0.03,1.11,12.25
2014-01-24 11:19:49,12.43,3.28,5.57,12.51
2014-01-24 12:15:39,12.63,3.94,8.27,12.74
2014-01-24 1:11:31,12.89,2.66,11.03,13.08
2014-01-24 2:07:23,12.95,2.96,11.63,13.11
2014-01-24 3:03:15,12.92,3.17,10.25,13.09
2014-01-24 3:59:25,12.82,3.76,8.07,12.91
2014-01-24 4:55:22,12.71,3.3,5.59,12.88
2014-01-24 5:51:19,12.53,3.08,2.75,12.56
2014-01-24 6:47:16,12.3,3.45,0.45,12.24
2014-01-24 7:43:13,12.03,5.62,0,4.62
2014-01-24 8:39:10,11.89,5.42,0,0.04
2014-01-24 9:35:07,11.66,5.18,0,0.04
2014-01-24 10:31:04,11.49,6.07,0,0.04
2014-01-24 11:27:09,11.42,4,0,0.04
2014-01-25 12:23:13,11.73,0.01,0,0.04
2014-01-25 1:19:18,11.77,0.01,0,0.04
2014-01-25 2:15:23,11.78,0.02,0,0.04
2014-01-25 3:11:27,11.77,0.02,0,0.04
2014-01-25 4:07:32,11.77,0.02,0,0.04
2014-01-25 5:03:37,11.77,0.02,0,0.04
2014-01-25 5:59:41,11.76,0.03,0,0.04
2014-01-25 6:55:46,11.75,0.03,0,0.04
2014-01-25 7:51:51,11.76,0.03,0.01,7.2
2014-01-25 8:47:56,11.93,0.03,0.44,11.94
2014-01-25 9:44:01,12.23,0.65,1.34,12.25
2014-01-25 10:40:05,12.25,2.64,3.47,12.32
2014-01-25 11:36:10,12.58,2.71,7.09,12.66
2014-01-25 12:32:15,12.72,3.49,8.16,12.87
2014-01-25 1:28:19,12.85,3.41,11.08,13.04
2014-01-25 2:24:24,12.87,3.2,11.11,13.09
2014-01-25 3:20:29,12.91,2.26,9.76,13.09
2014-01-25 4:16:34,12.78,2.77,6.19,12.84
2014-01-25 5:12:39,12.63,2.87,3.16,12.67
2014-01-25 6:08:48,12.44,2.96,1.44,12.44
2014-01-25 7:04:53,12.27,3.22,0.09,12.14
2014-01-25 8:00:58,12.05,5.73,0,1.38
2014-01-25 8:57:03,11.93,3.69,0,0.04
2014-01-25 9:53:08,11.83,3.28,0,0.04
2014-01-25 10:49:19,11.72,3.34,0,0.04
2014-01-25 11:45:32,11.62,3.9,0,0.04
2014-01-26 12:41:45,11.56,3.34,0,0.04
2014-01-26 1:37:57,11.44,3.21,0,0.04
2014-01-26 2:34:11,11.47,1.94,0,0.04
2014-01-26 3:30:24,11.67,0.02,0,0.04
2014-01-26 4:26:38,11.68,0.02,0,0.04
2014-01-26 5:22:52,11.68,0.02,0,0.04
2014-01-26 6:19:07,11.68,0.02,0,0.04
2014-01-26 7:15:25,11.68,0.03,0,0.33
2014-01-26 8:11:44,11.69,0.03,0.01,11.1
2014-01-26 9:08:04,11.88,0.03,0.34,11.88
2014-01-26 10:04:24,12.24,0.03,1.28,12.25
2014-01-26 11:00:41,12.62,0.02,4.64,12.7
2014-01-26 11:57:01,12.66,3.9,6.9,12.74
2014-01-26 12:53:21,12.73,4.24,9.86,12.9
2014-01-26 1:49:41,12.75,4.25,10.74,12.95
2014-01-26 2:46:01,12.8,3.67,9.94,12.98
2014-01-26 3:42:21,12.71,4.21,7.83,12.87
2014-01-26 4:38:41,12.6,3.72,5.88,12.73
2014-01-26 5:35:01,12.49,3.15,2.92,12.57
2014-01-26 6:31:21,12.28,3.46,0.69,12.28
2014-01-26 7:27:42,12.15,3.34,0.02,8.82
2014-01-26 8:24:01,11.96,3.99,0,0.05
2014-01-26 9:20:22,11.79,4.21,0,0.04
2014-01-26 10:16:48,11.66,3.86,0,0.04
2014-01-26 11:13:16,11.51,3.76,0,0.04
2014-01-27 12:09:43,11.39,3.38,0,0.04
2014-01-27 1:06:11,11.66,0,0,0.04
2014-01-27 2:02:39,11.7,0.01,0,0.04
2014-01-27 2:59:07,11.71,0.01,0,0.04
2014-01-27 3:55:34,11.7,0.01,0,0.04
2014-01-27 4:52:02,11.7,0.01,0,0.04
2014-01-27 5:48:30,11.69,0.01,0,0.04
2014-01-27 6:44:58,11.68,0.02,0,0.04
2014-01-27 7:41:26,11.68,0.02,0,5.58
2014-01-27 8:37:54,11.82,0.02,0.2,11.82
2014-01-27 9:34:22,12.17,0.02,1.16,12.2
2014-01-27 10:30:50,11.97,3.85,2.59,11.96
2014-01-27 11:27:18,12.2,3.17,5.53,12.26
2014-01-27 12:23:46,12.66,2.84,8.82,12.83
2014-01-27 1:20:14,12.76,3.49,9.07,12.91
2014-01-27 2:16:42,12.71,3.68,10.12,12.88
2014-01-27 3:13:10,12.75,2.94,9,12.88
2014-01-27 4:09:39,12.65,3.42,6.45,12.77
2014-01-27 5:06:08,12.53,3.21,4.63,12.57
2014-01-27 6:02:36,12.27,3.72,1.79,12.29
2014-01-27 6:59:05,12.04,4.05,0.14,11.97
2014-01-27 7:55:34,11.74,5.23,0,2.86
2014-01-27 8:52:03,11.45,5.15,0,0.04
2014-01-27 9:48:36,11.77,0,0,0.04
2014-01-27 10:45:13,11.83,0,0,0.04
2014-01-27 11:41:49,11.83,0,0,0.04
2014-01-28 12:38:25,11.82,0,0,0.04
2014-01-28 1:35:02,11.81,0.01,0,0.04
2014-01-28 2:31:38,11.81,0.01,0,0.04
2014-01-28 3:28:16,11.8,0.01,0,0.04
2014-01-28 4:24:54,11.79,0.01,0,0.04
2014-01-28 5:21:34,11.78,0.02,0,0.04
2014-01-28 6:18:17,11.77,0.02,0,0.04
2014-01-28 7:15:00,11.77,0.02,0,0.44
2014-01-28 8:11:43,11.79,0.02,0.03,11.43
2014-01-28 9:08:26,12.05,0.02,0.71,12.06
2014-01-28 10:05:09,12.3,0.02,1.34,12.31
2014-01-28 11:01:52,12.62,1.11,5.12,12.7
2014-01-28 11:47:47,12.78,2.56,7.9,12.91
2014-01-28 12:19:20,12.75,3.32,9.06,12.88
2014-01-28 12:55:27,12.87,2.66,11.35,13.08
2014-01-28 1:52:10,12.81,3.53,10.33,12.96
2014-01-28 2:42:19,12.82,3.84,9.85,13.02
2014-01-28 3:23:14,12.77,3.79,8.79,12.91
2014-01-28 4:08:18,12.7,3.57,7.24,12.78
2014-01-28 4:40:50,12.61,3.94,5.72,12.64
2014-01-28 5:27:05,12.45,4.05,3.6,12.51
2014-01-28 6:19:30,12.3,3.6,1.33,12.26
2014-01-28 7:11:54,12.12,4.2,0.04,11.2
2014-01-28 8:04:20,11.83,5.71,0,0.6
2014-01-28 8:56:45,11.64,5.33,0.01,0.04
2014-01-28 9:49:11,11.44,5.78,0,0.04
2014-01-28 10:41:36,11.43,3.05,0,0.04
2014-01-28 11:34:01,11.73,0,0,0.04
2014-01-29 12:26:34,11.76,0,0,0.04
2014-01-29 1:19:09,11.76,0,0,0.04
2014-01-29 2:11:43,11.77,0,0,0.04
2014-01-29 3:04:18,11.76,0.01,0,0.04
2014-01-29 3:56:53,11.75,0.01,0,0.04
2014-01-29 4:49:28,11.75,0.01,0,0.04
2014-01-29 5:42:03,11.74,0.01,0,0.04
2014-01-29 6:34:39,11.74,0.02,0,0.04
2014-01-29 7:27:13,11.73,0.02,0,2.47
2014-01-29 8:19:48,11.76,0.02,0.05,11.75
2014-01-29 9:12:24,11.95,0.02,0.39,11.95
2014-01-29 10:04:59,12.2,0.13,1.1,12.22
2014-01-29 10:57:34,12.59,0.09,4.84,12.66
2014-01-29 11:53:09,12.74,2.36,7.41,12.8
2014-01-29 12:50:01,12.74,3.59,10.34,12.96
2014-01-29 1:46:52,12.78,3.79,11.46,12.89
2014-01-29 2:43:43,12.86,3.54,10.72,13.03
2014-01-29 3:40:35,12.76,3.2,8.08,12.94
2014-01-29 4:37:26,12.69,3.01,6.04,12.75
2014-01-29 5:34:17,12.54,3,3.42,12.61
2014-01-29 6:31:09,12.37,3.22,0.9,12.35
2014-01-29 7:28:00,12.14,4.34,0.01,9.14
2014-01-29 8:24:52,11.96,4.91,0,0.05
2014-01-29 9:21:44,11.75,4.9,0,0.04
2014-01-29 10:18:36,11.62,4.55,0,0.04
2014-01-29 11:15:28,11.49,4.01,0,0.04
2014-01-30 12:12:21,11.5,1.89,0,0.04
2014-01-30 1:09:17,11.73,0,0,0.04
2014-01-30 2:06:14,11.75,0,0,0.04
2014-01-30 3:03:12,11.75,0.01,0,0.04
2014-01-30 4:00:11,11.74,0.01,0,0.04
2014-01-30 4:57:13,11.73,0.01,0,0.04
2014-01-30 5:54:19,11.73,0.02,0,0.04
2014-01-30 6:51:25,11.72,0.02,0,0.04
2014-01-30 7:48:31,11.71,0.02,0.01,6.95
2014-01-30 8:45:37,11.84,0.02,0.22,11.83
2014-01-30 9:42:44,12.11,0.02,0.8,12.11
2014-01-30 10:39:50,12.32,1.64,2.98,12.35
2014-01-30 11:36:56,12.57,3.67,8.2,12.71
2014-01-30 12:34:03,12.78,3.29,10.38,12.97
2014-01-30 1:31:09,12.8,3.08,10.88,12.96
2014-01-30 2:28:15,12.8,3.13,11.06,13.01
2014-01-30 3:25:22,12.85,2.95,9.63,13.01
2014-01-30 4:22:35,12.76,2.75,6.52,12.88
2014-01-30 5:19:41,12.68,2.19,4.2,12.73
2014-01-30 6:16:48,12.45,3.01,1.57,12.44
2014-01-30 7:13:54,12.29,2.85,0.05,12.08
2014-01-30 8:11:01,12.06,4.66,0,0.56
2014-01-30 9:08:07,11.91,4.48,0,0.04
2014-01-30 10:05:14,11.71,5.22,0,0.04
2014-01-30 11:02:20,11.58,4.6,0,0.04
2014-01-30 11:59:27,11.45,4.04,0,0.04
2014-01-31 12:56:33,11.42,2.51,0,0.04
2014-01-31 1:53:40,11.69,0,0,0.04
2014-01-31 2:50:46,11.72,0.01,0,0.04
2014-01-31 3:47:55,11.72,0.01,0,0.04
2014-01-31 4:45:09,11.72,0.01,0,0.04
2014-01-31 5:42:23,11.71,0.02,0,0.04
2014-01-31 6:39:38,11.7,0.02,0,0.04
2014-01-31 7:36:52,11.69,0.03,0,4.65
2014-01-31 8:34:06,11.79,0.03,0.16,11.79
2014-01-31 9:31:20,12.12,0.03,0.98,12.13
2014-01-31 10:28:34,12.45,0.9,2.84,12.49
2014-01-31 11:25:48,12.63,2.67,7.89,12.76
2014-01-31 12:23:03,12.84,3,10.29,12.98
2014-01-31 1:20:17,12.86,3.1,11.78,13.07
2014-01-31 2:17:31,12.89,3.05,11.24,13.08
2014-01-31 3:14:46,12.87,3.31,10.2,13.03
2014-01-31 4:12:00,12.81,2.9,7.53,12.92
2014-01-31 5:09:15,12.65,2.93,4.24,12.7
2014-01-31 6:06:30,12.51,2.58,1.74,12.51
2014-01-31 7:03:44,12.36,2.65,0.16,12.36
2014-01-31 8:01:00,12.14,5.07,0,2.39
2014-01-31 8:58:17,11.9,5.78,0,0.04
2014-01-31 9:55:34,11.63,8.45,0,0.04
2014-01-31 10:52:53,11.57,4.78,0,0.04
2014-01-31 11:50:13,11.86,0.01,0,0.04
2014-02-01 12:47:00,11.89,0.02,0,0.04
2014-02-01 1:44:00,11.88,0.02,0,0.04
2014-02-01 2:42:00,11.88,0.02,0,0.04
2014-02-01 3:39:00,11.88,0.03,0,0.04
2014-02-01 4:37:00,11.87,0.04,0,0.04
2014-02-01 5:34:00,11.86,0.04,0,0.04
2014-02-01 6:32:00,11.86,0.05,0,0.04
2014-02-01 7:29:00,11.85,0.05,0,3.1
2014-02-01 8:27:00,11.91,0.06,0.13,11.9
2014-02-01 9:24:00,11.73,2.52,0.85,11.74
2014-02-01 10:22:00,11.8,2.74,2.57,11.82
2014-02-01 11:19:00,12.43,3.14,7.91,12.56
2014-02-01 12:17:00,12.89,2.92,10.33,13.04
2014-02-01 1:14:00,12.96,2.51,11.92,13.14
2014-02-01 2:12:00,12.99,2.21,11.12,13.18
2014-02-01 3:09:00,12.98,2.03,9.35,13.15
2014-02-01 4:07:00,12.93,2.84,7.64,13.04
2014-02-01 5:04:00,12.76,2.81,5.22,12.81
2014-02-01 6:02:00,12.58,2.82,2.25,12.59
2014-02-01 6:59:00,12.42,2.52,0.3,12.41
2014-02-01 7:57:00,12.24,3.59,0.01,3.51
2014-02-01 8:54:00,11.95,7.28,0,0.04
2014-02-01 9:51:00,11.81,5.24,0,0.04
2014-02-01 10:49:00,11.61,6.27,0,0.04
2014-02-01 11:46:00,11.46,5.55,0,0.04
2014-02-02 12:44:00,11.67,1.39,0,0.04
2014-02-02 1:41:00,11.82,0.02,0,0.04
2014-02-02 2:39:00,11.84,0.03,0,0.04
2014-02-02 3:36:00,11.83,0.03,0,0.04
2014-02-02 4:34:00,11.84,0.04,0,0.04
2014-02-02 5:32:00,11.82,0.04,0,0.04
2014-02-02 6:29:00,11.82,0.05,0,0.04
2014-02-02 7:27:00,11.82,0.05,0,2.72
2014-02-02 8:25:00,11.86,0.06,0.13,11.85
2014-02-02 9:22:00,12.14,0.05,0.92,12.16
2014-02-02 10:20:00,11.92,3.64,2.61,12.05
2014-02-02 11:17:00,12.25,4.94,8.23,12.36
2014-02-02 12:15:00,12.7,5.33,11.33,12.87
2014-02-02 1:13:00,12.89,4.32,12.44,13.09
2014-02-02 2:10:00,12.89,4.2,12.34,13.05
2014-02-02 3:08:00,12.84,4.17,11.18,12.99
2014-02-02 4:06:00,12.82,3.83,8.91,12.99
2014-02-02 5:03:00,12.73,3.24,5.94,12.83
2014-02-02 6:01:00,12.46,3.91,2.69,12.47
2014-02-02 6:54:00,12.23,3.56,0.34,12.2
2014-02-02 7:50:00,11.99,5.72,0,4.93
2014-02-02 8:48:00,11.74,5.59,0,0.04
2014-02-02 9:45:00,11.63,4.72,0,0.04
2014-02-02 10:24:00,11.44,5.73,0,0.04
2014-02-02 11:21:00,11.52,2.57,0,0.04
2014-02-03 12:18:00,11.77,0.01,0,0.04
2014-02-03 1:16:00,11.78,0.01,0,0.04
2014-02-03 2:14:00,11.78,0.02,0,0.04
2014-02-03 3:12:00,11.78,0.02,0,0.04
2014-02-03 4:09:00,11.78,0.03,0,0.04
2014-02-03 5:07:00,11.77,0.03,0,0.04
2014-02-03 6:05:00,11.77,0.03,0,0.04
2014-02-03 7:03:00,11.76,0.04,0,0.06
2014-02-03 8:01:00,11.78,0.04,0.02,9.49
2014-02-03 8:58:00,11.94,0.04,0.34,11.95
2014-02-03 9:56:00,12.1,1.07,1.45,12.13
2014-02-03 10:54:00,12.3,2.68,5.81,12.39
2014-02-03 11:52:00,12.85,3.25,10.68,13.02
2014-02-03 12:50:00,12.88,3.41,12.29,13.06
2014-02-03 1:47:00,12.96,3.09,12.62,13.14
2014-02-03 2:45:00,12.98,3.45,11.8,13.17
2014-02-03 3:43:00,12.98,3.05,9.99,13.17
2014-02-03 4:41:00,12.88,2.94,7.26,13
2014-02-03 5:39:00,12.71,3.09,4.04,12.8
2014-02-03 6:37:00,12.48,3.24,1.08,12.51
2014-02-03 7:35:00,12.26,3.92,0.01,8.08
2014-02-03 8:32:00,12.08,4.7,0,0.05
2014-02-03 9:30:00,11.92,4.4,0,0.04
2014-02-03 10:28:00,11.83,4.4,0,0.04
2014-02-03 11:26:00,11.64,5.59,0,0.05
2014-02-04 12:24:00,11.56,4.22,0,0.04
2014-02-04 1:22:00,11.53,3.54,0,0.04
2014-02-04 2:20:00,11.48,2.91,0,0.04
2014-02-04 3:18:00,11.39,2.76,0,0.04
2014-02-04 4:15:00,11.63,0.12,0,0.04
2014-02-04 5:13:00,11.69,0.03,0,0.04
2014-02-04 6:11:00,11.69,0.04,0,0.04
2014-02-04 7:09:00,11.69,0.04,0,0.18
2014-02-04 8:07:00,11.77,0.04,0.17,10.9
2014-02-04 9:05:00,12.02,0.04,0.63,12.02
2014-02-04 10:03:00,11.99,2.17,2,12.06
2014-02-04 11:01:00,12.26,3.38,6.05,12.31
2014-02-04 11:59:00,12.66,3.45,9.41,12.78
2014-02-04 12:58:00,12.89,2.64,11.74,13.07
2014-02-04 1:56:00,12.92,2.15,11.96,13.11
2014-02-04 2:54:00,12.96,2.04,10.91,13.14
2014-02-04 3:45:00,12.87,2.96,8.91,13.01
2014-02-04 4:43:00,12.79,3.13,6.3,12.9
2014-02-04 5:41:00,12.57,2.96,2.56,12.55
2014-02-04 6:39:00,12.42,2.2,0.73,12.44
2014-02-04 7:37:00,12.23,3.91,0.01,8.8
2014-02-04 8:35:00,12.11,3.95,0,0.04
2014-02-04 9:33:00,11.95,4.19,0,0.04
2014-02-04 10:31:00,11.83,4.09,0,0.04
2014-02-04 11:29:00,11.7,4.32,0,0.04
2014-02-05 12:20:00,11.6,4.24,0,0.04
2014-02-05 1:18:00,11.57,3.14,0,0.04
2014-02-05 2:16:00,11.53,2.81,0,0.04
2014-02-05 3:14:00,11.45,2.65,0,0.04
2014-02-05 4:12:00,11.42,2.1,0,0.04
2014-02-05 5:10:00,11.64,0.02,0,0.04
2014-02-05 6:08:00,11.67,0.02,0,0.04
2014-02-05 7:06:00,11.67,0.02,0,0.08
2014-02-05 8:05:00,11.69,0.03,0.02,10.02
2014-02-05 9:03:00,11.92,0.03,0.47,11.91
2014-02-05 10:01:00,11.82,2.26,1.83,11.84
2014-02-05 10:59:00,12.22,2.85,5.61,12.29
2014-02-05 11:58:00,12.75,2.72,8.76,12.87
2014-02-05 12:56:00,12.83,2.45,9.91,12.98
2014-02-05 1:54:00,12.83,2.78,9.94,13
2014-02-05 2:52:00,12.83,2.32,9.18,12.95
2014-02-05 3:51:00,12.81,2.32,7.33,12.92
2014-02-05 4:49:00,12.73,2.13,4.93,12.83
2014-02-05 5:47:00,12.59,2.07,2.24,12.62
2014-02-05 6:46:00,12.3,3.35,0.33,12.29
2014-02-05 7:44:00,12.05,4.74,0,6.06
2014-02-05 8:42:00,11.92,4.42,0,0.04
2014-02-05 9:40:00,11.7,6.31,0,0.04
2014-02-05 10:36:00,11.46,6.03,0,0.04
2014-02-05 11:17:00,11.39,5.14,0,0.04
2014-02-05 11:52:00,11.64,0.67,0,0.04
2014-02-06 12:47:00,11.77,0,0,0.04
2014-02-06 1:45:00,11.79,0.01,0,0.04
2014-02-06 2:38:00,11.79,0.01,0,0.04
2014-02-06 3:30:00,11.79,0.01,0,0.04
2014-02-06 4:28:00,11.78,0.02,0,0.04
2014-02-06 5:26:00,11.77,0.02,0,0.04
2014-02-06 6:25:00,11.77,0.02,0,0.04
2014-02-06 7:23:00,11.76,0.02,0,1.5
2014-02-06 8:21:00,11.8,0.02,0.07,11.75
2014-02-06 9:20:00,12.04,0.36,0.78,12.04
2014-02-06 10:18:00,12.09,2.29,2.77,12.14
2014-02-06 11:17:00,12.54,2.6,7.45,12.67
2014-02-06 12:15:00,12.82,2.94,10.08,12.95
2014-02-06 1:14:00,12.84,2.85,10.9,13.03
2014-02-06 2:12:00,12.91,2.11,10.76,13.11
2014-02-06 3:09:00,12.85,2.76,9.05,13.01
2014-02-06 4:04:00,12.82,2.65,7.19,12.96
2014-02-06 4:39:00,12.76,2.3,5.08,12.76
2014-02-06 5:12:00,12.64,2.49,3.22,12.7
2014-02-06 5:44:00,12.52,2.56,1.71,12.53
2014-02-06 6:16:00,12.41,2.7,0.72,12.4
2014-02-06 6:49:00,12.3,2.9,0.09,12.28
2014-02-06 7:21:00,12.23,3.93,0,9.79
2014-02-06 8:06:00,12.1,4.6,0,0.3
2014-02-06 9:05:00,11.97,4.19,0,0.04
2014-02-06 10:03:00,11.85,3.76,0,0.04
2014-02-06 11:02:00,11.65,4.19,0,0.04
2014-02-07 12:00:00,11.62,3.48,0,0.04
2014-02-07 12:59:00,11.54,3.23,0,0.04
2014-02-07 1:57:00,11.45,3.37,0,0.04
2014-02-07 2:56:00,11.42,2.56,0,0.04
2014-02-07 3:54:00,11.66,0.01,0,0.04
2014-02-07 4:53:00,11.68,0.01,0,0.04
2014-02-07 5:51:00,11.69,0.01,0,0.04
2014-02-07 6:50:00,11.68,0.01,0,0.04
2014-02-07 7:48:00,11.68,0.02,0,6.45
2014-02-07 8:47:00,11.83,0.02,0.26,11.82
2014-02-07 9:45:00,11.48,3.41,1.77,11.49
2014-02-07 10:44:00,11.65,4.06,4.58,11.73
2014-02-07 11:43:00,12.51,3.48,8.44,12.66
2014-02-07 12:41:00,12.76,3.16,9.82,12.93
2014-02-07 1:40:00,12.81,2.71,10.26,12.98
2014-02-07 2:38:00,12.77,2.71,9.75,12.91
2014-02-07 3:37:00,12.74,3.09,8.04,12.84
2014-02-07 4:36:00,12.5,3.11,4.36,12.61
2014-02-07 5:34:00,12.4,2.29,2.05,12.4
2014-02-07 6:33:00,12.3,2.04,0.63,12.29
2014-02-07 7:32:00,12.15,2.96,0.02,9.43
2014-02-07 8:30:00,11.93,3.83,0,0.05
2014-02-07 9:29:00,11.77,4.38,0.01,0.04
2014-02-07 10:28:00,11.63,3.35,0,0.04
2014-02-07 11:27:00,11.86,0,0,0.04
2014-02-08 12:26:00,11.88,0,0,0.04
2014-02-08 1:25:00,11.88,0,0,0.04
2014-02-08 2:24:00,11.87,0,0,0.04
2014-02-08 3:22:00,11.86,0.01,0,0.04
2014-02-08 4:20:00,11.85,0.01,0,0.04
2014-02-08 5:19:00,11.85,0.01,0,0.04
2014-02-08 6:18:00,11.84,0.01,0,0.04
2014-02-08 7:17:00,11.83,0.01,0,0.68
2014-02-08 8:15:00,11.87,0.02,0.08,11.69
2014-02-08 9:14:00,11.73,2.27,0.73,11.74
2014-02-08 10:13:00,11.85,2.31,2.83,11.87
2014-02-08 11:12:00,12.36,3.35,6.64,12.48
2014-02-08 12:11:00,12.65,3.89,9.33,12.8
2014-02-08 1:09:00,12.86,3.01,10.44,13.02
2014-02-08 2:08:00,12.78,3.81,10.47,12.97
2014-02-08 3:07:00,12.81,2.98,9.13,12.92
2014-02-08 4:06:00,12.81,1.76,7.23,12.92
2014-02-08 5:05:00,12.69,1.7,4.29,12.79
2014-02-08 6:04:00,12.55,1.66,1.74,12.56
2014-02-08 7:03:00,12.27,3.35,0.13,12.23
2014-02-08 8:01:00,12.11,4.15,0,2.48
2014-02-08 8:59:00,11.96,3.42,0,0.04
2014-02-08 9:58:00,11.87,3.59,0,0.05
2014-02-08 10:58:00,11.68,3.83,0,0.04
2014-02-08 11:56:00,11.58,3.34,0,0.04
2014-02-09 12:55:00,11.83,0,0,0.04
2014-02-09 1:54:00,11.86,0,0,0.04
2014-02-09 2:53:00,11.86,0.01,0,0.04
2014-02-09 3:52:00,11.85,0.01,0,0.04
2014-02-09 4:51:00,11.85,0.01,0,0.04
2014-02-09 5:50:00,11.84,0.01,0,0.04
2014-02-09 6:49:00,11.83,0.02,0,0.04
2014-02-09 7:48:00,11.83,0.02,0.01,6.78
2014-02-09 8:47:00,11.94,0.02,0.23,11.95
2014-02-09 9:46:00,12.03,1,1.9,12.08
2014-02-09 10:45:00,12.67,0.17,5.75,12.86
2014-02-09 11:43:00,12.86,2.02,9.62,13.07
2014-02-09 12:42:00,12.94,1.64,11.25,13.17
2014-02-09 1:42:00,13.07,0,11.24,13.29
2014-02-09 2:41:00,13.09,0.55,9.98,13.33
2014-02-09 3:40:00,12.95,3.75,9.32,13.1
2014-02-09 4:39:00,12.86,3.35,6.95,12.99
2014-02-09 5:38:00,12.7,2.97,3.93,12.75
2014-02-09 6:37:00,12.58,2.22,1.09,12.56
2014-02-09 7:36:00,12.28,4.41,0.01,8.62
2014-02-09 8:35:00,12.17,4.99,0,0.05
2014-02-09 9:34:00,12.05,5.51,0,0.05
2014-02-09 10:33:00,11.83,6.54,0,0.04
2014-02-09 11:32:00,11.69,6.62,0,0.04
2014-02-10 12:31:00,11.64,4.46,0,0.04
2014-02-10 1:30:00,11.6,3.14,0,0.04
2014-02-10 2:29:00,11.55,2.85,0,0.04
2014-02-10 3:28:00,11.5,2.84,0,0.04
2014-02-10 4:27:00,11.41,2.75,0,0.04
2014-02-10 5:26:00,11.58,0.5,0,0.04
2014-02-10 6:25:00,11.68,0.02,0,0.04
2014-02-10 7:24:00,11.68,0.02,0,2.23
2014-02-10 8:23:00,11.76,0.03,0.1,11.75
2014-02-10 9:22:00,12.08,0.43,1.17,12.07
2014-02-10 10:22:00,12.26,2.87,4.82,12.32
2014-02-10 11:21:00,12.64,3.36,9.01,12.82
2014-02-10 12:20:00,12.82,3.75,11.16,13.02
2014-02-10 1:19:00,12.83,3.02,12.02,13.06
2014-02-10 2:18:00,12.87,2.64,11.83,13.12
2014-02-10 3:18:00,12.87,3.07,10.44,13.06
2014-02-10 4:17:00,12.86,2.34,7.9,12.96
2014-02-10 5:16:00,12.72,2.35,4.53,12.79
2014-02-10 6:15:00,12.49,2.85,1.3,12.49
2014-02-10 7:14:00,12.32,3.05,0.1,12.07
2014-02-10 8:14:00,12.11,4.57,0,0.95
2014-02-10 9:13:00,11.98,4.3,0,0.04
2014-02-10 10:12:00,11.71,7.46,0,0.05
2014-02-10 11:11:00,11.58,5.48,0,0.04
2014-02-11 12:11:00,11.51,4.81,0,0.04
2014-02-11 1:10:00,11.42,3.81,0,0.04
2014-02-11 2:09:00,11.5,1.46,0,0.04
2014-02-11 3:08:00,11.7,0.01,0,0.04
2014-02-11 4:08:00,11.72,0.01,0,0.04
2014-02-11 5:07:00,11.72,0.01,0,0.04
2014-02-11 6:06:00,11.71,0.02,0,0.04
2014-02-11 7:05:00,11.7,0.02,0,0.08
2014-02-11 8:05:00,11.73,0.02,0.04,10
2014-02-11 9:04:00,11.94,0.02,0.61,11.94
2014-02-11 10:03:00,12.37,1.09,3.5,12.42
2014-02-11 11:03:00,12.58,3.42,7.68,12.67
2014-02-11 12:02:00,12.76,3.26,10.47,12.96
2014-02-11 1:01:00,12.86,2.43,11.8,13.08
2014-02-11 2:01:00,12.84,3.06,11.97,13.11
2014-02-11 3:00:00,12.88,3.43,10.84,13.05
2014-02-11 3:59:00,12.84,3.19,8.81,13.02
2014-02-11 4:59:00,12.79,3.06,5.95,12.87
2014-02-11 5:58:00,12.54,3.13,2.54,12.55
2014-02-11 6:58:00,12.32,3.14,0.35,12.3
2014-02-11 7:57:00,12.17,4.22,0.01,4.4
2014-02-11 8:57:00,12.01,4.71,0,0.04
2014-02-11 9:56:00,11.83,5.23,0,0.04
2014-02-11 10:55:00,11.68,5.46,0,0.05
2014-02-11 11:55:00,11.58,3.99,0,0.05
2014-02-12 12:54:00,11.5,4.3,0,0.04
2014-02-12 1:54:00,11.41,3.14,0,0.04
2014-02-12 2:53:00,11.47,1.51,0,0.04
2014-02-12 3:53:00,11.67,0.01,0,0.04
2014-02-12 4:52:00,11.69,0.02,0,0.04
2014-02-12 5:51:00,11.68,0.02,0,0.04
2014-02-12 6:51:00,11.68,0.03,0,0.04
2014-02-12 7:50:00,11.68,0.03,0.02,7.53
2014-02-12 8:50:00,11.83,0.1,0.34,11.83
2014-02-12 9:49:00,11.69,3.04,3.01,11.73
2014-02-12 10:49:00,12.52,3,7.74,12.68
2014-02-12 11:48:00,12.83,2.56,10.78,13.03
2014-02-12 12:48:00,12.85,2.92,12.27,13.09
2014-02-12 1:47:00,12.9,2.86,12.52,13.14
2014-02-12 2:47:00,12.93,2.64,11.67,13.15
2014-02-12 3:47:00,12.93,2.64,9.52,13.11
2014-02-12 4:46:00,12.82,2.61,6.34,12.91
2014-02-12 5:46:00,12.59,3.04,3.2,12.63
2014-02-12 6:45:00,12.42,2.78,1.02,12.47
2014-02-12 7:45:00,12.25,3.94,0.01,6.99
2014-02-12 8:45:00,12.14,4.27,0,0.04
2014-02-12 9:44:00,12.02,4,0,0.05
2014-02-12 10:44:00,11.87,4.27,0,0.05
2014-02-12 11:44:00,11.74,4.48,0,0.05
2014-02-13 12:43:40,11.69,3.56,0,0.05
2014-02-13 1:43:19,11.65,3.21,0,0.05
2014-02-13 2:42:57,11.58,3.05,0,0.04
2014-02-13 3:42:36,11.48,3.02,0,0.04
2014-02-13 4:42:15,11.39,2.96,0,0.04
2014-02-13 5:41:54,11.64,0.02,0.01,0.04
2014-02-13 6:41:34,11.68,0.02,0.01,0.04
2014-02-13 7:41:14,11.69,0.03,0.01,5.58
2014-02-13 8:40:54,11.82,0.03,0.32,11.81
2014-02-13 9:40:34,11.71,2.99,2.55,11.75
2014-02-13 10:40:14,12.42,2.97,6.55,12.48
2014-02-13 11:39:54,12.71,3.35,9.42,12.85
2014-02-13 12:39:41,12.81,2.57,11.11,13
2014-02-13 1:39:28,12.84,3.14,11.71,13.03
2014-02-13 2:39:16,12.79,2.94,10.46,12.97
2014-02-13 3:39:04,12.84,2.73,9.22,12.97
2014-02-13 4:38:52,12.76,3.1,6.77,12.87
2014-02-13 5:38:41,12.61,2.72,3.76,12.66
2014-02-13 6:38:29,12.45,2.32,0.99,12.44
2014-02-13 7:38:18,12.24,3.4,0.03,8.24
2014-02-13 8:38:07,12.08,4.37,0,0.04
2014-02-13 9:37:56,11.77,7.39,0,0.05
2014-02-13 10:37:46,11.6,6.5,0,0.05
2014-02-13 11:37:36,11.54,4.33,0,0.06
2014-02-14 12:37:27,11.48,3.41,0,0.06
2014-02-14 1:37:17,11.39,3.04,0,0.06
2014-02-14 2:37:08,11.63,0.09,0,0.06
2014-02-14 3:37:00,11.69,0.01,0,0.05
2014-02-14 4:36:51,11.69,0.02,0,0.04
2014-02-14 5:36:43,11.69,0.02,0,0.04
2014-02-14 6:36:35,11.68,0.02,0,0.04
2014-02-14 7:36:27,11.68,0.02,0,4.4
2014-02-14 8:36:19,11.86,0.02,0.47,11.87
2014-02-14 9:36:12,12.08,1.34,1.83,12.11
2014-02-14 10:36:04,12.23,3.07,5.12,12.29
2014-02-14 11:35:57,12.52,3.29,7.34,12.61
2014-02-14 12:35:49,12.62,3.07,7.15,12.71
2014-02-14 1:35:48,12.72,3.22,9.38,12.88
2014-02-14 2:35:48,12.75,2.82,8.82,12.86
2014-02-14 3:35:47,12.73,1.99,6.95,12.83
2014-02-14 4:35:47,12.6,2.71,5.02,12.69
2014-02-14 5:35:47,12.39,2.87,2.72,12.43
2014-02-14 6:34:56,12.27,2.91,0.94,12.25
2014-02-14 7:29:13,11.97,5.43,0.03,9.73
2014-02-14 8:23:31,11.74,5.1,0.01,0.08
2014-02-14 9:17:48,11.68,3.64,0,0.04
2014-02-14 10:12:06,11.44,4.9,0,0.05
2014-02-14 11:06:26,11.71,0,0,0.06
2014-02-15 12:00:44,11.77,0,0,0.06
2014-02-15 12:55:02,11.77,0.01,0,0.06
2014-02-15 1:49:20,11.77,0.01,0,0.06
2014-02-15 2:43:38,11.77,0.01,0,0.06
2014-02-15 3:37:57,11.76,0.01,0,0.06
2014-02-15 4:32:15,11.75,0.02,0,0.05
2014-02-15 5:26:33,11.74,0.02,0,0.04
2014-02-15 6:20:51,11.74,0.03,0,0.04
2014-02-15 7:15:09,11.73,0.03,0,0.79
2014-02-15 8:09:28,11.75,0.03,0.07,11.49
2014-02-15 9:03:46,11.46,2.83,0.88,11.43
2014-02-15 9:58:05,11.85,2.92,4.04,11.92
2014-02-15 10:52:23,12.57,3.17,7.18,12.66
2014-02-15 11:46:42,12.67,3.98,9.45,12.82
2014-02-15 12:42:47,12.78,3.53,10.87,12.99
2014-02-15 1:42:50,12.78,3.26,11.32,13.01
2014-02-15 2:42:54,12.84,2.84,10.54,13.04
2014-02-15 3:42:58,12.83,2.59,8.88,12.95
2014-02-15 4:43:02,12.75,2.31,6.36,12.83
2014-02-15 5:43:06,12.59,2.28,3.15,12.61
2014-02-15 6:43:10,12.34,3.05,0.76,12.32
2014-02-15 7:43:16,12.16,3.93,0.01,7.22
2014-02-15 8:43:27,11.95,5.06,0.01,0.04
2014-02-15 9:43:38,11.77,5.39,0,0.04
2014-02-15 10:43:50,11.66,4.09,0.01,0.04
2014-02-15 11:44:02,11.54,3.66,0,0.05
2014-02-16 12:44:15,11.47,3.4,0.01,0.05
2014-02-16 1:44:27,11.56,1.05,0.01,0.06
2014-02-16 2:44:41,11.72,0.01,0.02,0.06
2014-02-16 3:44:55,11.73,0.01,0.02,0.05
2014-02-16 4:45:11,11.73,0.02,0.02,0.04
2014-02-16 5:45:25,11.73,0.02,0.03,0.04
2014-02-16 6:45:40,11.72,0.03,0.03,0.04
2014-02-16 7:45:55,11.71,0.03,0.03,6.58
2014-02-16 8:46:10,11.5,1.99,0.5,11.5
2014-02-16 9:46:25,11.81,1.87,2.37,11.85
2014-02-16 10:46:40,12.35,2.46,5.07,12.44
2014-02-16 11:46:55,12.57,3.63,7.75,12.69
2014-02-16 12:47:10,12.69,3.61,9.67,12.9
2014-02-16 1:47:25,12.79,3.19,11.07,12.95
2014-02-16 2:47:40,12.78,3.48,10.97,12.99
2014-02-16 3:47:56,12.75,4.08,8.94,12.89
2014-02-16 4:48:12,12.59,3.11,5.28,12.69
2014-02-16 5:48:28,12.54,2.96,3.46,12.58
2014-02-16 6:48:43,12.35,2.63,0.75,12.34
2014-02-16 7:48:59,12.04,5.93,0.02,6.32
2014-02-16 8:49:16,11.7,6.43,0.01,0.04
2014-02-16 9:49:38,11.54,4.96,0.01,0.05
2014-02-16 10:50:01,11.44,3.37,0.01,0.04
2014-02-16 11:50:24,11.75,0.02,0.02,0.04
2014-02-17 12:50:49,11.78,0.03,0.02,0.04
2014-02-17 1:51:15,11.78,0.04,0.03,0.05
2014-02-17 2:51:40,11.77,0.04,0.03,0.05
2014-02-17 3:52:06,11.76,0.05,0.02,0.05
2014-02-17 4:52:32,11.75,0.05,0.02,0.04
2014-02-17 5:52:59,11.75,0.06,0.01,0.04
2014-02-17 6:53:25,11.74,0.06,0,0.04
2014-02-17 7:53:52,11.75,0.07,0.03,8.29
2014-02-17 8:54:18,11.92,0.17,0.52,12.02
2014-02-17 9:54:45,11.71,4.11,4.24,11.74
2014-02-17 10:55:11,12.5,3.3,7.77,12.58
2014-02-17 11:55:37,12.78,3.64,10.27,12.94
2014-02-17 12:56:04,12.85,3.26,11.89,13.06
2014-02-17 1:56:30,12.9,3.67,12.19,13.13
2014-02-17 2:56:57,12.87,3.85,11.29,13.09
2014-02-17 3:57:24,12.9,3.04,9.21,13.03
2014-02-17 4:57:51,12.81,2.62,6.01,12.91
2014-02-17 5:58:19,12.55,3.24,2.75,12.56
2014-02-17 6:58:47,12.35,2.96,0.6,12.34
2014-02-17 7:59:16,12.09,5.19,0,4.01
2014-02-17 8:59:44,11.87,5.2,0,0.04
2014-02-17 10:00:14,11.68,5.48,0,0.04
2014-02-17 11:00:48,11.44,6.71,0.01,0.04
